<?xml version="1.0" encoding="UTF-8"?>
<svg xmlns="http://www.w3.org/2000/svg" xmlns:xlink="http://www.w3.org/1999/xlink" width="504pt" height="504pt" viewBox="0 0 504 504" version="1.1">
<defs>
<g>
<symbol overflow="visible" id="glyph0-0">
<path style="stroke:none;" d=""/>
</symbol>
<symbol overflow="visible" id="glyph0-1">
<path style="stroke:none;" d="M 2.5 -2.109375 L 2.5 -2.75 L 0.40625 -2.75 L 0.40625 -2.109375 Z M 2.5 -2.109375 "/>
</symbol>
<symbol overflow="visible" id="glyph0-2">
<path style="stroke:none;" d="M 3.046875 0 L 3.046875 -6.234375 L 2.546875 -6.234375 C 2.265625 -5.28125 2.09375 -5.140625 0.890625 -5 L 0.890625 -4.4375 L 2.28125 -4.4375 L 2.28125 0 Z M 3.046875 0 "/>
</symbol>
<symbol overflow="visible" id="glyph0-3">
<path style="stroke:none;" d="M 4.453125 -3 C 4.453125 -5.15625 3.78125 -6.234375 2.421875 -6.234375 C 1.078125 -6.234375 0.375 -5.140625 0.375 -3.046875 C 0.375 -0.953125 1.078125 0.125 2.421875 0.125 C 3.734375 0.125 4.453125 -0.953125 4.453125 -3 Z M 3.671875 -3.0625 C 3.671875 -1.296875 3.265625 -0.515625 2.40625 -0.515625 C 1.578125 -0.515625 1.171875 -1.34375 1.171875 -3.046875 C 1.171875 -4.75 1.578125 -5.546875 2.421875 -5.546875 C 3.25 -5.546875 3.671875 -4.734375 3.671875 -3.0625 Z M 3.671875 -3.0625 "/>
</symbol>
<symbol overflow="visible" id="glyph0-4">
<path style="stroke:none;" d="M 4.515625 -2.0625 C 4.515625 -3.296875 3.6875 -4.109375 2.5 -4.109375 C 2.0625 -4.109375 1.703125 -4 1.34375 -3.734375 L 1.59375 -5.34375 L 4.1875 -5.34375 L 4.1875 -6.109375 L 0.96875 -6.109375 L 0.5 -2.84375 L 1.21875 -2.84375 C 1.578125 -3.265625 1.875 -3.421875 2.359375 -3.421875 C 3.1875 -3.421875 3.71875 -2.890625 3.71875 -1.96875 C 3.71875 -1.0625 3.203125 -0.546875 2.359375 -0.546875 C 1.6875 -0.546875 1.265625 -0.890625 1.078125 -1.59375 L 0.3125 -1.59375 C 0.5625 -0.359375 1.265625 0.125 2.375 0.125 C 3.640625 0.125 4.515625 -0.75 4.515625 -2.0625 Z M 4.515625 -2.0625 "/>
</symbol>
<symbol overflow="visible" id="glyph0-5">
<path style="stroke:none;" d="M 4.5 -4.40625 C 4.5 -5.46875 3.671875 -6.234375 2.5 -6.234375 C 1.21875 -6.234375 0.484375 -5.59375 0.4375 -4.078125 L 1.21875 -4.078125 C 1.28125 -5.125 1.703125 -5.5625 2.46875 -5.5625 C 3.171875 -5.5625 3.703125 -5.0625 3.703125 -4.390625 C 3.703125 -3.890625 3.40625 -3.46875 2.859375 -3.15625 L 2.046875 -2.703125 C 0.75 -1.96875 0.375 -1.375 0.296875 0 L 4.453125 0 L 4.453125 -0.765625 L 1.171875 -0.765625 C 1.25 -1.28125 1.53125 -1.59375 2.296875 -2.046875 L 3.171875 -2.53125 C 4.046875 -2.984375 4.5 -3.640625 4.5 -4.40625 Z M 4.5 -4.40625 "/>
</symbol>
<symbol overflow="visible" id="glyph0-6">
<path style="stroke:none;" d="M 4.28125 0 L 4.28125 -3.484375 C 4.28125 -4.25 3.71875 -4.734375 2.828125 -4.734375 C 2.171875 -4.734375 1.78125 -4.546875 1.34375 -3.96875 L 1.34375 -6.40625 L 0.609375 -6.40625 L 0.609375 0 L 1.34375 0 L 1.34375 -2.546875 C 1.34375 -3.484375 1.84375 -4.09375 2.59375 -4.09375 C 3.109375 -4.09375 3.546875 -3.796875 3.546875 -3.1875 L 3.546875 0 Z M 4.28125 0 "/>
</symbol>
<symbol overflow="visible" id="glyph0-7">
<path style="stroke:none;" d="M 4.515625 -2.09375 C 4.515625 -2.765625 4.453125 -3.1875 4.328125 -3.53125 C 4.03125 -4.28125 3.328125 -4.734375 2.46875 -4.734375 C 1.171875 -4.734375 0.359375 -3.796875 0.359375 -2.28125 C 0.359375 -0.765625 1.15625 0.125 2.453125 0.125 C 3.5 0.125 4.234375 -0.46875 4.421875 -1.40625 L 3.671875 -1.40625 C 3.46875 -0.796875 3.0625 -0.546875 2.46875 -0.546875 C 1.703125 -0.546875 1.140625 -1.03125 1.125 -2.09375 Z M 3.734375 -2.75 C 3.734375 -2.75 3.734375 -2.703125 3.71875 -2.6875 L 1.140625 -2.6875 C 1.203125 -3.515625 1.71875 -4.0625 2.453125 -4.0625 C 3.171875 -4.0625 3.734375 -3.46875 3.734375 -2.75 Z M 3.734375 -2.75 "/>
</symbol>
<symbol overflow="visible" id="glyph0-8">
<path style="stroke:none;" d="M 2.234375 0 L 2.234375 -0.609375 C 2.140625 -0.59375 2.015625 -0.578125 1.875 -0.578125 C 1.5625 -0.578125 1.484375 -0.671875 1.484375 -1 L 1.484375 -4.015625 L 2.234375 -4.015625 L 2.234375 -4.609375 L 1.484375 -4.609375 L 1.484375 -5.875 L 0.75 -5.875 L 0.75 -4.609375 L 0.125 -4.609375 L 0.125 -4.015625 L 0.75 -4.015625 L 0.75 -0.671875 C 0.75 -0.203125 1.0625 0.0625 1.640625 0.0625 C 1.8125 0.0625 1.984375 0.046875 2.234375 0 Z M 2.234375 0 "/>
</symbol>
<symbol overflow="visible" id="glyph0-9">
<path style="stroke:none;" d="M 4.421875 0 L 2.53125 -3.015625 L 4.140625 -4.609375 L 3.1875 -4.609375 L 1.234375 -2.65625 L 1.234375 -6.40625 L 0.515625 -6.40625 L 0.515625 0 L 1.234375 0 L 1.234375 -1.796875 L 1.953125 -2.5 L 3.515625 0 Z M 4.421875 0 "/>
</symbol>
<symbol overflow="visible" id="glyph0-10">
<path style="stroke:none;" d="M 4.484375 -2.265625 C 4.484375 -3.859375 3.71875 -4.734375 2.390625 -4.734375 C 1.09375 -4.734375 0.3125 -3.859375 0.3125 -2.3125 C 0.3125 -0.75 1.09375 0.125 2.40625 0.125 C 3.6875 0.125 4.484375 -0.75 4.484375 -2.265625 Z M 3.71875 -2.28125 C 3.71875 -1.203125 3.203125 -0.546875 2.40625 -0.546875 C 1.578125 -0.546875 1.078125 -1.1875 1.078125 -2.3125 C 1.078125 -3.40625 1.578125 -4.0625 2.40625 -4.0625 C 3.234375 -4.0625 3.71875 -3.421875 3.71875 -2.28125 Z M 3.71875 -2.28125 "/>
</symbol>
<symbol overflow="visible" id="glyph1-0">
<path style="stroke:none;" d=""/>
</symbol>
<symbol overflow="visible" id="glyph1-1">
<path style="stroke:none;" d="M 6.78125 -5.671875 C 6.78125 -7.171875 5.890625 -8.015625 4.3125 -8.015625 L 1 -8.015625 L 1 0 L 2.03125 0 L 2.03125 -3.40625 L 4.546875 -3.40625 C 5.859375 -3.40625 6.78125 -4.328125 6.78125 -5.671875 Z M 5.71875 -5.703125 C 5.71875 -4.828125 5.140625 -4.296875 4.15625 -4.296875 L 2.03125 -4.296875 L 2.03125 -7.109375 L 4.15625 -7.109375 C 5.140625 -7.109375 5.71875 -6.59375 5.71875 -5.703125 Z M 5.71875 -5.703125 "/>
</symbol>
<symbol overflow="visible" id="glyph1-2">
<path style="stroke:none;" d="M 7.453125 -2.921875 L 6.390625 -2.921875 C 6.15625 -1.40625 5.515625 -0.703125 4.15625 -0.703125 C 2.5625 -0.703125 1.546875 -1.921875 1.546875 -3.921875 C 1.546875 -5.984375 2.515625 -7.3125 4.0625 -7.3125 C 5.328125 -7.3125 5.984375 -6.75 6.234375 -5.53125 L 7.28125 -5.53125 C 6.96875 -7.296875 5.953125 -8.21875 4.1875 -8.21875 C 1.765625 -8.21875 0.53125 -6.265625 0.53125 -3.921875 C 0.53125 -1.578125 1.796875 0.203125 4.140625 0.203125 C 6.109375 0.203125 7.203125 -0.84375 7.453125 -2.921875 Z M 7.453125 -2.921875 "/>
</symbol>
<symbol overflow="visible" id="glyph1-3">
<path style="stroke:none;" d="M 3.8125 0 L 3.8125 -7.796875 L 3.171875 -7.796875 C 2.84375 -6.59375 2.625 -6.4375 1.125 -6.25 L 1.125 -5.5625 L 2.84375 -5.5625 L 2.84375 0 Z M 3.8125 0 "/>
</symbol>
<symbol overflow="visible" id="glyph1-4">
<path style="stroke:none;" d="M 2.09375 0 L 2.09375 -1.140625 L 0.953125 -1.140625 L 0.953125 0 Z M 2.09375 -4.625 L 2.09375 -5.765625 L 0.953125 -5.765625 L 0.953125 -4.625 Z M 2.09375 -4.625 "/>
</symbol>
<symbol overflow="visible" id="glyph1-5">
<path style="stroke:none;" d=""/>
</symbol>
<symbol overflow="visible" id="glyph1-6">
<path style="stroke:none;" d="M 5.640625 -2.421875 C 5.640625 -3.875 4.65625 -4.84375 3.25 -4.84375 C 2.484375 -4.84375 1.875 -4.546875 1.46875 -3.984375 C 1.46875 -5.890625 2.09375 -6.9375 3.203125 -6.9375 C 3.890625 -6.9375 4.359375 -6.515625 4.515625 -5.765625 L 5.484375 -5.765625 C 5.296875 -7.046875 4.453125 -7.796875 3.265625 -7.796875 C 1.453125 -7.796875 0.46875 -6.265625 0.46875 -3.546875 C 0.46875 -1.125 1.3125 0.171875 3.09375 0.171875 C 4.578125 0.171875 5.640625 -0.890625 5.640625 -2.421875 Z M 4.65625 -2.34375 C 4.65625 -1.359375 4 -0.6875 3.109375 -0.6875 C 2.203125 -0.6875 1.515625 -1.390625 1.515625 -2.390625 C 1.515625 -3.359375 2.171875 -4 3.140625 -4 C 4.0625 -4 4.65625 -3.390625 4.65625 -2.34375 Z M 4.65625 -2.34375 "/>
</symbol>
<symbol overflow="visible" id="glyph1-7">
<path style="stroke:none;" d="M 5.625 -5.515625 C 5.625 -6.828125 4.59375 -7.796875 3.125 -7.796875 C 1.53125 -7.796875 0.609375 -6.984375 0.546875 -5.09375 L 1.515625 -5.09375 C 1.59375 -6.40625 2.140625 -6.953125 3.09375 -6.953125 C 3.96875 -6.953125 4.625 -6.328125 4.625 -5.484375 C 4.625 -4.875 4.265625 -4.34375 3.578125 -3.953125 L 2.5625 -3.375 C 0.9375 -2.453125 0.46875 -1.71875 0.375 0 L 5.5625 0 L 5.5625 -0.953125 L 1.46875 -0.953125 C 1.5625 -1.59375 1.90625 -2 2.875 -2.5625 L 3.96875 -3.15625 C 5.0625 -3.734375 5.625 -4.546875 5.625 -5.515625 Z M 5.625 -5.515625 "/>
</symbol>
<symbol overflow="visible" id="glyph1-8">
<path style="stroke:none;" d="M 4.0625 -5.625 C 4.0625 -6.703125 3.25 -7.53125 2.1875 -7.53125 C 1.171875 -7.53125 0.3125 -6.6875 0.3125 -5.65625 C 0.3125 -4.625 1.171875 -3.765625 2.203125 -3.765625 C 3.21875 -3.765625 4.0625 -4.625 4.0625 -5.625 Z M 3.3125 -5.640625 C 3.3125 -5.03125 2.8125 -4.546875 2.203125 -4.546875 C 1.578125 -4.546875 1.078125 -5.046875 1.078125 -5.65625 C 1.078125 -6.265625 1.578125 -6.765625 2.1875 -6.765625 C 2.8125 -6.765625 3.3125 -6.265625 3.3125 -5.640625 Z M 7.421875 -7.796875 L 6.703125 -7.796875 L 2.359375 0.21875 L 3.078125 0.21875 Z M 9.453125 -1.65625 C 9.453125 -2.703125 8.625 -3.546875 7.5625 -3.546875 C 6.546875 -3.546875 5.703125 -2.6875 5.703125 -1.671875 C 5.703125 -0.640625 6.546875 0.203125 7.578125 0.203125 C 8.59375 0.203125 9.453125 -0.640625 9.453125 -1.65625 Z M 8.6875 -1.65625 C 8.6875 -1.0625 8.1875 -0.5625 7.578125 -0.5625 C 6.96875 -0.5625 6.453125 -1.0625 6.453125 -1.671875 C 6.453125 -2.28125 6.96875 -2.765625 7.5625 -2.765625 C 8.1875 -2.765625 8.6875 -2.28125 8.6875 -1.65625 Z M 8.6875 -1.65625 "/>
</symbol>
<symbol overflow="visible" id="glyph1-9">
<path style="stroke:none;" d="M 5.34375 -5.765625 L 4.3125 -5.765625 L 2.6875 -1.09375 L 1.140625 -5.765625 L 0.109375 -5.765625 L 2.140625 0 L 3.140625 0 Z M 5.34375 -5.765625 "/>
</symbol>
<symbol overflow="visible" id="glyph1-10">
<path style="stroke:none;" d="M 5.890625 -0.015625 L 5.890625 -0.71875 C 5.78125 -0.6875 5.734375 -0.6875 5.6875 -0.6875 C 5.375 -0.6875 5.1875 -0.859375 5.1875 -1.140625 L 5.1875 -4.359375 C 5.1875 -5.375 4.4375 -5.921875 3.03125 -5.921875 C 1.625 -5.921875 0.765625 -5.390625 0.71875 -4.0625 L 1.640625 -4.0625 C 1.71875 -4.765625 2.140625 -5.078125 2.984375 -5.078125 C 3.8125 -5.078125 4.28125 -4.78125 4.28125 -4.21875 L 4.28125 -3.984375 C 4.28125 -3.59375 4.046875 -3.4375 3.328125 -3.34375 C 2.03125 -3.171875 1.828125 -3.140625 1.46875 -2.984375 C 0.796875 -2.71875 0.46875 -2.203125 0.46875 -1.5 C 0.46875 -0.453125 1.1875 0.171875 2.359375 0.171875 C 3.09375 0.171875 3.8125 -0.140625 4.3125 -0.6875 C 4.40625 -0.234375 4.8125 0.078125 5.265625 0.078125 C 5.4375 0.078125 5.59375 0.0625 5.890625 -0.015625 Z M 4.28125 -1.984375 C 4.28125 -1.171875 3.4375 -0.640625 2.546875 -0.640625 C 1.84375 -0.640625 1.421875 -0.890625 1.421875 -1.515625 C 1.421875 -2.125 1.828125 -2.390625 2.8125 -2.53125 C 3.765625 -2.65625 3.96875 -2.703125 4.28125 -2.84375 Z M 4.28125 -1.984375 "/>
</symbol>
<symbol overflow="visible" id="glyph1-11">
<path style="stroke:none;" d="M 3.53125 -4.96875 L 3.53125 -5.890625 C 3.375 -5.921875 3.296875 -5.921875 3.171875 -5.921875 C 2.578125 -5.921875 2.140625 -5.578125 1.609375 -4.71875 L 1.609375 -5.765625 L 0.765625 -5.765625 L 0.765625 0 L 1.6875 0 L 1.6875 -2.984375 C 1.6875 -4.296875 2.109375 -4.9375 3.53125 -4.96875 Z M 3.53125 -4.96875 "/>
</symbol>
<symbol overflow="visible" id="glyph1-12">
<path style="stroke:none;" d="M 1.6875 0 L 1.6875 -5.765625 L 0.765625 -5.765625 L 0.765625 0 Z M 1.796875 -6.640625 L 1.796875 -7.78125 L 0.65625 -7.78125 L 0.65625 -6.640625 Z M 1.796875 -6.640625 "/>
</symbol>
<symbol overflow="visible" id="glyph1-13">
<path style="stroke:none;" d="M 5.359375 0 L 5.359375 -4.359375 C 5.359375 -5.3125 4.640625 -5.921875 3.53125 -5.921875 C 2.671875 -5.921875 2.125 -5.59375 1.609375 -4.796875 L 1.609375 -5.765625 L 0.765625 -5.765625 L 0.765625 0 L 1.6875 0 L 1.6875 -3.171875 C 1.6875 -4.359375 2.328125 -5.125 3.25 -5.125 C 3.984375 -5.125 4.4375 -4.6875 4.4375 -4 L 4.4375 0 Z M 5.359375 0 "/>
</symbol>
<symbol overflow="visible" id="glyph1-14">
<path style="stroke:none;" d="M 5.25 -1.984375 L 4.328125 -1.984375 C 4.171875 -1.0625 3.703125 -0.6875 2.921875 -0.6875 C 1.90625 -0.6875 1.296875 -1.46875 1.296875 -2.828125 C 1.296875 -4.265625 1.890625 -5.078125 2.890625 -5.078125 C 3.65625 -5.078125 4.140625 -4.625 4.25 -3.828125 L 5.1875 -3.828125 C 5.078125 -5.234375 4.1875 -5.921875 2.90625 -5.921875 C 1.359375 -5.921875 0.34375 -4.734375 0.34375 -2.828125 C 0.34375 -0.96875 1.328125 0.171875 2.890625 0.171875 C 4.265625 0.171875 5.140625 -0.65625 5.25 -1.984375 Z M 5.25 -1.984375 "/>
</symbol>
<symbol overflow="visible" id="glyph1-15">
<path style="stroke:none;" d="M 5.640625 -2.625 C 5.640625 -3.453125 5.578125 -3.984375 5.40625 -4.40625 C 5.03125 -5.359375 4.15625 -5.921875 3.078125 -5.921875 C 1.46875 -5.921875 0.4375 -4.734375 0.4375 -2.84375 C 0.4375 -0.953125 1.4375 0.171875 3.0625 0.171875 C 4.375 0.171875 5.296875 -0.578125 5.515625 -1.75 L 4.59375 -1.75 C 4.34375 -0.984375 3.828125 -0.6875 3.09375 -0.6875 C 2.140625 -0.6875 1.421875 -1.296875 1.390625 -2.625 Z M 4.65625 -3.4375 C 4.65625 -3.4375 4.65625 -3.390625 4.65625 -3.359375 L 1.421875 -3.359375 C 1.5 -4.390625 2.140625 -5.078125 3.0625 -5.078125 C 3.96875 -5.078125 4.65625 -4.328125 4.65625 -3.4375 Z M 4.65625 -3.4375 "/>
</symbol>
<symbol overflow="visible" id="glyph1-16">
<path style="stroke:none;" d="M 5.375 -0.953125 L 5.375 -5.765625 L 4.53125 -5.765625 L 4.53125 -4.921875 C 4.0625 -5.609375 3.515625 -5.921875 2.765625 -5.921875 C 1.3125 -5.921875 0.3125 -4.703125 0.3125 -2.828125 C 0.3125 -1.015625 1.34375 0.171875 2.6875 0.171875 C 3.421875 0.171875 3.921875 -0.140625 4.53125 -0.875 L 4.53125 -0.484375 C 4.53125 1.046875 3.90625 1.625 2.84375 1.625 C 2.109375 1.625 1.546875 1.359375 1.4375 0.65625 L 0.5 0.65625 C 0.609375 1.75 1.453125 2.390625 2.8125 2.390625 C 4.609375 2.390625 5.375 1.59375 5.375 -0.953125 Z M 4.4375 -2.84375 C 4.4375 -1.46875 3.84375 -0.6875 2.875 -0.6875 C 1.875 -0.6875 1.28125 -1.484375 1.28125 -2.875 C 1.28125 -4.265625 1.890625 -5.078125 2.875 -5.078125 C 3.859375 -5.078125 4.4375 -4.25 4.4375 -2.84375 Z M 4.4375 -2.84375 "/>
</symbol>
<symbol overflow="visible" id="glyph1-17">
<path style="stroke:none;" d="M 5.609375 -2.84375 C 5.609375 -4.828125 4.65625 -5.921875 2.984375 -5.921875 C 1.375 -5.921875 0.390625 -4.8125 0.390625 -2.875 C 0.390625 -0.953125 1.359375 0.171875 3 0.171875 C 4.625 0.171875 5.609375 -0.953125 5.609375 -2.84375 Z M 4.65625 -2.84375 C 4.65625 -1.5 4.015625 -0.6875 3 -0.6875 C 1.984375 -0.6875 1.359375 -1.484375 1.359375 -2.875 C 1.359375 -4.265625 1.984375 -5.078125 3 -5.078125 C 4.03125 -5.078125 4.65625 -4.28125 4.65625 -2.84375 Z M 4.65625 -2.84375 "/>
</symbol>
<symbol overflow="visible" id="glyph1-18">
<path style="stroke:none;" d="M 5.296875 0 L 5.296875 -5.765625 L 4.390625 -5.765625 L 4.390625 -2.578125 C 4.390625 -1.40625 3.765625 -0.640625 2.8125 -0.640625 C 2.09375 -0.640625 1.625 -1.078125 1.625 -1.765625 L 1.625 -5.765625 L 0.71875 -5.765625 L 0.71875 -1.40625 C 0.71875 -0.453125 1.4375 0.171875 2.546875 0.171875 C 3.40625 0.171875 3.9375 -0.125 4.484375 -0.890625 L 4.484375 0 Z M 5.296875 0 "/>
</symbol>
<symbol overflow="visible" id="glyph1-19">
<path style="stroke:none;" d="M 5.75 -2.828125 C 5.75 -4.765625 4.8125 -5.921875 3.28125 -5.921875 C 2.5 -5.921875 1.875 -5.578125 1.4375 -4.890625 L 1.4375 -5.765625 L 0.609375 -5.765625 L 0.609375 2.390625 L 1.515625 2.390625 L 1.515625 -0.6875 C 2 -0.09375 2.546875 0.171875 3.28125 0.171875 C 4.78125 0.171875 5.75 -0.984375 5.75 -2.828125 Z M 4.796875 -2.84375 C 4.796875 -1.546875 4.125 -0.6875 3.125 -0.6875 C 2.15625 -0.6875 1.515625 -1.484375 1.515625 -2.84375 C 1.515625 -4.1875 2.15625 -5.078125 3.125 -5.078125 C 4.140625 -5.078125 4.796875 -4.21875 4.796875 -2.84375 Z M 4.796875 -2.84375 "/>
</symbol>
<symbol overflow="visible" id="glyph2-0">
<path style="stroke:none;" d=""/>
</symbol>
<symbol overflow="visible" id="glyph2-1">
<path style="stroke:none;" d="M -5.671875 -6.78125 C -7.171875 -6.78125 -8.015625 -5.890625 -8.015625 -4.3125 L -8.015625 -1 L 0 -1 L 0 -2.03125 L -3.40625 -2.03125 L -3.40625 -4.546875 C -3.40625 -5.859375 -4.328125 -6.78125 -5.671875 -6.78125 Z M -5.703125 -5.71875 C -4.828125 -5.71875 -4.296875 -5.140625 -4.296875 -4.15625 L -4.296875 -2.03125 L -7.109375 -2.03125 L -7.109375 -4.15625 C -7.109375 -5.140625 -6.59375 -5.71875 -5.703125 -5.71875 Z M -5.703125 -5.71875 "/>
</symbol>
<symbol overflow="visible" id="glyph2-2">
<path style="stroke:none;" d="M -2.921875 -7.453125 L -2.921875 -6.390625 C -1.40625 -6.15625 -0.703125 -5.515625 -0.703125 -4.15625 C -0.703125 -2.5625 -1.921875 -1.546875 -3.921875 -1.546875 C -5.984375 -1.546875 -7.3125 -2.515625 -7.3125 -4.0625 C -7.3125 -5.328125 -6.75 -5.984375 -5.53125 -6.234375 L -5.53125 -7.28125 C -7.296875 -6.96875 -8.21875 -5.953125 -8.21875 -4.1875 C -8.21875 -1.765625 -6.265625 -0.53125 -3.921875 -0.53125 C -1.578125 -0.53125 0.203125 -1.796875 0.203125 -4.140625 C 0.203125 -6.109375 -0.84375 -7.203125 -2.921875 -7.453125 Z M -2.921875 -7.453125 "/>
</symbol>
<symbol overflow="visible" id="glyph2-3">
<path style="stroke:none;" d="M -5.515625 -5.625 C -6.828125 -5.625 -7.796875 -4.59375 -7.796875 -3.125 C -7.796875 -1.53125 -6.984375 -0.609375 -5.09375 -0.546875 L -5.09375 -1.515625 C -6.40625 -1.59375 -6.953125 -2.140625 -6.953125 -3.09375 C -6.953125 -3.96875 -6.328125 -4.625 -5.484375 -4.625 C -4.875 -4.625 -4.34375 -4.265625 -3.953125 -3.578125 L -3.375 -2.5625 C -2.453125 -0.9375 -1.71875 -0.46875 0 -0.375 L 0 -5.5625 L -0.953125 -5.5625 L -0.953125 -1.46875 C -1.59375 -1.5625 -2 -1.90625 -2.5625 -2.875 L -3.15625 -3.96875 C -3.734375 -5.0625 -4.546875 -5.625 -5.515625 -5.625 Z M -5.515625 -5.625 "/>
</symbol>
<symbol overflow="visible" id="glyph2-4">
<path style="stroke:none;" d="M 0 -2.09375 L -1.140625 -2.09375 L -1.140625 -0.953125 L 0 -0.953125 Z M -4.625 -2.09375 L -5.765625 -2.09375 L -5.765625 -0.953125 L -4.625 -0.953125 Z M -4.625 -2.09375 "/>
</symbol>
<symbol overflow="visible" id="glyph2-5">
<path style="stroke:none;" d=""/>
</symbol>
<symbol overflow="visible" id="glyph2-6">
<path style="stroke:none;" d="M 0 -3.8125 L -7.796875 -3.8125 L -7.796875 -3.171875 C -6.59375 -2.84375 -6.4375 -2.625 -6.25 -1.125 L -5.5625 -1.125 L -5.5625 -2.84375 L 0 -2.84375 Z M 0 -3.8125 "/>
</symbol>
<symbol overflow="visible" id="glyph2-7">
<path style="stroke:none;" d="M -2.421875 -5.640625 C -3.875 -5.640625 -4.84375 -4.65625 -4.84375 -3.25 C -4.84375 -2.484375 -4.546875 -1.875 -3.984375 -1.46875 C -5.890625 -1.46875 -6.9375 -2.09375 -6.9375 -3.203125 C -6.9375 -3.890625 -6.515625 -4.359375 -5.765625 -4.515625 L -5.765625 -5.484375 C -7.046875 -5.296875 -7.796875 -4.453125 -7.796875 -3.265625 C -7.796875 -1.453125 -6.265625 -0.46875 -3.546875 -0.46875 C -1.125 -0.46875 0.171875 -1.3125 0.171875 -3.09375 C 0.171875 -4.578125 -0.890625 -5.640625 -2.421875 -5.640625 Z M -2.34375 -4.65625 C -1.359375 -4.65625 -0.6875 -4 -0.6875 -3.109375 C -0.6875 -2.203125 -1.390625 -1.515625 -2.390625 -1.515625 C -3.359375 -1.515625 -4 -2.171875 -4 -3.140625 C -4 -4.0625 -3.390625 -4.65625 -2.34375 -4.65625 Z M -2.34375 -4.65625 "/>
</symbol>
<symbol overflow="visible" id="glyph2-8">
<path style="stroke:none;" d="M -5.625 -4.0625 C -6.703125 -4.0625 -7.53125 -3.25 -7.53125 -2.1875 C -7.53125 -1.171875 -6.6875 -0.3125 -5.65625 -0.3125 C -4.625 -0.3125 -3.765625 -1.171875 -3.765625 -2.203125 C -3.765625 -3.21875 -4.625 -4.0625 -5.625 -4.0625 Z M -5.640625 -3.3125 C -5.03125 -3.3125 -4.546875 -2.8125 -4.546875 -2.203125 C -4.546875 -1.578125 -5.046875 -1.078125 -5.65625 -1.078125 C -6.265625 -1.078125 -6.765625 -1.578125 -6.765625 -2.1875 C -6.765625 -2.8125 -6.265625 -3.3125 -5.640625 -3.3125 Z M -7.796875 -7.421875 L -7.796875 -6.703125 L 0.21875 -2.359375 L 0.21875 -3.078125 Z M -1.65625 -9.453125 C -2.703125 -9.453125 -3.546875 -8.625 -3.546875 -7.5625 C -3.546875 -6.546875 -2.6875 -5.703125 -1.671875 -5.703125 C -0.640625 -5.703125 0.203125 -6.546875 0.203125 -7.578125 C 0.203125 -8.59375 -0.640625 -9.453125 -1.65625 -9.453125 Z M -1.65625 -8.6875 C -1.0625 -8.6875 -0.5625 -8.1875 -0.5625 -7.578125 C -0.5625 -6.96875 -1.0625 -6.453125 -1.671875 -6.453125 C -2.28125 -6.453125 -2.765625 -6.96875 -2.765625 -7.5625 C -2.765625 -8.1875 -2.28125 -8.6875 -1.65625 -8.6875 Z M -1.65625 -8.6875 "/>
</symbol>
<symbol overflow="visible" id="glyph2-9">
<path style="stroke:none;" d="M -5.765625 -5.34375 L -5.765625 -4.3125 L -1.09375 -2.6875 L -5.765625 -1.140625 L -5.765625 -0.109375 L 0 -2.140625 L 0 -3.140625 Z M -5.765625 -5.34375 "/>
</symbol>
<symbol overflow="visible" id="glyph2-10">
<path style="stroke:none;" d="M -0.015625 -5.890625 L -0.71875 -5.890625 C -0.6875 -5.78125 -0.6875 -5.734375 -0.6875 -5.6875 C -0.6875 -5.375 -0.859375 -5.1875 -1.140625 -5.1875 L -4.359375 -5.1875 C -5.375 -5.1875 -5.921875 -4.4375 -5.921875 -3.03125 C -5.921875 -1.625 -5.390625 -0.765625 -4.0625 -0.71875 L -4.0625 -1.640625 C -4.765625 -1.71875 -5.078125 -2.140625 -5.078125 -2.984375 C -5.078125 -3.8125 -4.78125 -4.28125 -4.21875 -4.28125 L -3.984375 -4.28125 C -3.59375 -4.28125 -3.4375 -4.046875 -3.34375 -3.328125 C -3.171875 -2.03125 -3.140625 -1.828125 -2.984375 -1.46875 C -2.71875 -0.796875 -2.203125 -0.46875 -1.5 -0.46875 C -0.453125 -0.46875 0.171875 -1.1875 0.171875 -2.359375 C 0.171875 -3.09375 -0.140625 -3.8125 -0.6875 -4.3125 C -0.234375 -4.40625 0.078125 -4.8125 0.078125 -5.265625 C 0.078125 -5.4375 0.0625 -5.59375 -0.015625 -5.890625 Z M -1.984375 -4.28125 C -1.171875 -4.28125 -0.640625 -3.4375 -0.640625 -2.546875 C -0.640625 -1.84375 -0.890625 -1.421875 -1.515625 -1.421875 C -2.125 -1.421875 -2.390625 -1.828125 -2.53125 -2.8125 C -2.65625 -3.765625 -2.703125 -3.96875 -2.84375 -4.28125 Z M -1.984375 -4.28125 "/>
</symbol>
<symbol overflow="visible" id="glyph2-11">
<path style="stroke:none;" d="M -4.96875 -3.53125 L -5.890625 -3.53125 C -5.921875 -3.375 -5.921875 -3.296875 -5.921875 -3.171875 C -5.921875 -2.578125 -5.578125 -2.140625 -4.71875 -1.609375 L -5.765625 -1.609375 L -5.765625 -0.765625 L 0 -0.765625 L 0 -1.6875 L -2.984375 -1.6875 C -4.296875 -1.6875 -4.9375 -2.109375 -4.96875 -3.53125 Z M -4.96875 -3.53125 "/>
</symbol>
<symbol overflow="visible" id="glyph2-12">
<path style="stroke:none;" d="M 0 -1.6875 L -5.765625 -1.6875 L -5.765625 -0.765625 L 0 -0.765625 Z M -6.640625 -1.796875 L -7.78125 -1.796875 L -7.78125 -0.65625 L -6.640625 -0.65625 Z M -6.640625 -1.796875 "/>
</symbol>
<symbol overflow="visible" id="glyph2-13">
<path style="stroke:none;" d="M 0 -5.359375 L -4.359375 -5.359375 C -5.3125 -5.359375 -5.921875 -4.640625 -5.921875 -3.53125 C -5.921875 -2.671875 -5.59375 -2.125 -4.796875 -1.609375 L -5.765625 -1.609375 L -5.765625 -0.765625 L 0 -0.765625 L 0 -1.6875 L -3.171875 -1.6875 C -4.359375 -1.6875 -5.125 -2.328125 -5.125 -3.25 C -5.125 -3.984375 -4.6875 -4.4375 -4 -4.4375 L 0 -4.4375 Z M 0 -5.359375 "/>
</symbol>
<symbol overflow="visible" id="glyph2-14">
<path style="stroke:none;" d="M -1.984375 -5.25 L -1.984375 -4.328125 C -1.0625 -4.171875 -0.6875 -3.703125 -0.6875 -2.921875 C -0.6875 -1.90625 -1.46875 -1.296875 -2.828125 -1.296875 C -4.265625 -1.296875 -5.078125 -1.890625 -5.078125 -2.890625 C -5.078125 -3.65625 -4.625 -4.140625 -3.828125 -4.25 L -3.828125 -5.1875 C -5.234375 -5.078125 -5.921875 -4.1875 -5.921875 -2.90625 C -5.921875 -1.359375 -4.734375 -0.34375 -2.828125 -0.34375 C -0.96875 -0.34375 0.171875 -1.328125 0.171875 -2.890625 C 0.171875 -4.265625 -0.65625 -5.140625 -1.984375 -5.25 Z M -1.984375 -5.25 "/>
</symbol>
<symbol overflow="visible" id="glyph2-15">
<path style="stroke:none;" d="M -2.625 -5.640625 C -3.453125 -5.640625 -3.984375 -5.578125 -4.40625 -5.40625 C -5.359375 -5.03125 -5.921875 -4.15625 -5.921875 -3.078125 C -5.921875 -1.46875 -4.734375 -0.4375 -2.84375 -0.4375 C -0.953125 -0.4375 0.171875 -1.4375 0.171875 -3.0625 C 0.171875 -4.375 -0.578125 -5.296875 -1.75 -5.515625 L -1.75 -4.59375 C -0.984375 -4.34375 -0.6875 -3.828125 -0.6875 -3.09375 C -0.6875 -2.140625 -1.296875 -1.421875 -2.625 -1.390625 Z M -3.4375 -4.65625 C -3.4375 -4.65625 -3.390625 -4.65625 -3.359375 -4.65625 L -3.359375 -1.421875 C -4.390625 -1.5 -5.078125 -2.140625 -5.078125 -3.0625 C -5.078125 -3.96875 -4.328125 -4.65625 -3.4375 -4.65625 Z M -3.4375 -4.65625 "/>
</symbol>
</g>
<clipPath id="clip1">
  <path d="M 0 94.769531 L 504 94.769531 L 504 409.230469 L 0 409.230469 Z M 0 94.769531 "/>
</clipPath>
<clipPath id="clip2">
  <path d="M 38.152344 100.25 L 440.84375 100.25 L 440.84375 375.082031 L 38.152344 375.082031 Z M 38.152344 100.25 "/>
</clipPath>
<clipPath id="clip3">
  <path d="M 38.152344 369 L 440.84375 369 L 440.84375 371 L 38.152344 371 Z M 38.152344 369 "/>
</clipPath>
<clipPath id="clip4">
  <path d="M 38.152344 315 L 440.84375 315 L 440.84375 317 L 38.152344 317 Z M 38.152344 315 "/>
</clipPath>
<clipPath id="clip5">
  <path d="M 38.152344 261 L 440.84375 261 L 440.84375 263 L 38.152344 263 Z M 38.152344 261 "/>
</clipPath>
<clipPath id="clip6">
  <path d="M 38.152344 208 L 440.84375 208 L 440.84375 209 L 38.152344 209 Z M 38.152344 208 "/>
</clipPath>
<clipPath id="clip7">
  <path d="M 38.152344 154 L 440.84375 154 L 440.84375 155 L 38.152344 155 Z M 38.152344 154 "/>
</clipPath>
<clipPath id="clip8">
  <path d="M 38.152344 100.25 L 440.84375 100.25 L 440.84375 101 L 38.152344 101 Z M 38.152344 100.25 "/>
</clipPath>
<clipPath id="clip9">
  <path d="M 103 100.25 L 105 100.25 L 105 375.082031 L 103 375.082031 Z M 103 100.25 "/>
</clipPath>
<clipPath id="clip10">
  <path d="M 211 100.25 L 212 100.25 L 212 375.082031 L 211 375.082031 Z M 211 100.25 "/>
</clipPath>
<clipPath id="clip11">
  <path d="M 318 100.25 L 320 100.25 L 320 375.082031 L 318 375.082031 Z M 318 100.25 "/>
</clipPath>
<clipPath id="clip12">
  <path d="M 426 100.25 L 428 100.25 L 428 375.082031 L 426 375.082031 Z M 426 100.25 "/>
</clipPath>
<clipPath id="clip13">
  <path d="M 38.152344 342 L 440.84375 342 L 440.84375 344 L 38.152344 344 Z M 38.152344 342 "/>
</clipPath>
<clipPath id="clip14">
  <path d="M 38.152344 288 L 440.84375 288 L 440.84375 290 L 38.152344 290 Z M 38.152344 288 "/>
</clipPath>
<clipPath id="clip15">
  <path d="M 38.152344 234 L 440.84375 234 L 440.84375 236 L 38.152344 236 Z M 38.152344 234 "/>
</clipPath>
<clipPath id="clip16">
  <path d="M 38.152344 180 L 440.84375 180 L 440.84375 182 L 38.152344 182 Z M 38.152344 180 "/>
</clipPath>
<clipPath id="clip17">
  <path d="M 38.152344 127 L 440.84375 127 L 440.84375 129 L 38.152344 129 Z M 38.152344 127 "/>
</clipPath>
<clipPath id="clip18">
  <path d="M 49 100.25 L 51 100.25 L 51 375.082031 L 49 375.082031 Z M 49 100.25 "/>
</clipPath>
<clipPath id="clip19">
  <path d="M 157 100.25 L 159 100.25 L 159 375.082031 L 157 375.082031 Z M 157 100.25 "/>
</clipPath>
<clipPath id="clip20">
  <path d="M 264 100.25 L 266 100.25 L 266 375.082031 L 264 375.082031 Z M 264 100.25 "/>
</clipPath>
<clipPath id="clip21">
  <path d="M 372 100.25 L 374 100.25 L 374 375.082031 L 372 375.082031 Z M 372 100.25 "/>
</clipPath>
</defs>
<g id="surface114">
<rect x="0" y="0" width="504" height="504" style="fill:rgb(100%,100%,100%);fill-opacity:1;stroke:none;"/>
<g clip-path="url(#clip1)" clip-rule="nonzero">
<path style="fill-rule:nonzero;fill:rgb(100%,100%,100%);fill-opacity:1;stroke-width:1.066978;stroke-linecap:round;stroke-linejoin:round;stroke:rgb(100%,100%,100%);stroke-opacity:1;stroke-miterlimit:10;" d="M 0 409.230469 L 504 409.230469 L 504 94.769531 L 0 94.769531 Z M 0 409.230469 "/>
</g>
<g clip-path="url(#clip2)" clip-rule="nonzero">
<path style=" stroke:none;fill-rule:nonzero;fill:rgb(92.156863%,92.156863%,92.156863%);fill-opacity:1;" d="M 38.152344 375.082031 L 440.84375 375.082031 L 440.84375 100.25 L 38.152344 100.25 Z M 38.152344 375.082031 "/>
</g>
<g clip-path="url(#clip3)" clip-rule="nonzero">
<path style="fill:none;stroke-width:0.533489;stroke-linecap:butt;stroke-linejoin:round;stroke:rgb(100%,100%,100%);stroke-opacity:1;stroke-miterlimit:10;" d="M 38.152344 369.871094 L 440.84375 369.871094 "/>
</g>
<g clip-path="url(#clip4)" clip-rule="nonzero">
<path style="fill:none;stroke-width:0.533489;stroke-linecap:butt;stroke-linejoin:round;stroke:rgb(100%,100%,100%);stroke-opacity:1;stroke-miterlimit:10;" d="M 38.152344 316.039062 L 440.84375 316.039062 "/>
</g>
<g clip-path="url(#clip5)" clip-rule="nonzero">
<path style="fill:none;stroke-width:0.533489;stroke-linecap:butt;stroke-linejoin:round;stroke:rgb(100%,100%,100%);stroke-opacity:1;stroke-miterlimit:10;" d="M 38.152344 262.203125 L 440.84375 262.203125 "/>
</g>
<g clip-path="url(#clip6)" clip-rule="nonzero">
<path style="fill:none;stroke-width:0.533489;stroke-linecap:butt;stroke-linejoin:round;stroke:rgb(100%,100%,100%);stroke-opacity:1;stroke-miterlimit:10;" d="M 38.152344 208.371094 L 440.84375 208.371094 "/>
</g>
<g clip-path="url(#clip7)" clip-rule="nonzero">
<path style="fill:none;stroke-width:0.533489;stroke-linecap:butt;stroke-linejoin:round;stroke:rgb(100%,100%,100%);stroke-opacity:1;stroke-miterlimit:10;" d="M 38.152344 154.539062 L 440.84375 154.539062 "/>
</g>
<g clip-path="url(#clip8)" clip-rule="nonzero">
<path style="fill:none;stroke-width:0.533489;stroke-linecap:butt;stroke-linejoin:round;stroke:rgb(100%,100%,100%);stroke-opacity:1;stroke-miterlimit:10;" d="M 38.152344 100.703125 L 440.84375 100.703125 "/>
</g>
<g clip-path="url(#clip9)" clip-rule="nonzero">
<path style="fill:none;stroke-width:0.533489;stroke-linecap:butt;stroke-linejoin:round;stroke:rgb(100%,100%,100%);stroke-opacity:1;stroke-miterlimit:10;" d="M 103.84375 375.082031 L 103.84375 100.25 "/>
</g>
<g clip-path="url(#clip10)" clip-rule="nonzero">
<path style="fill:none;stroke-width:0.533489;stroke-linecap:butt;stroke-linejoin:round;stroke:rgb(100%,100%,100%);stroke-opacity:1;stroke-miterlimit:10;" d="M 211.507812 375.082031 L 211.507812 100.25 "/>
</g>
<g clip-path="url(#clip11)" clip-rule="nonzero">
<path style="fill:none;stroke-width:0.533489;stroke-linecap:butt;stroke-linejoin:round;stroke:rgb(100%,100%,100%);stroke-opacity:1;stroke-miterlimit:10;" d="M 319.175781 375.082031 L 319.175781 100.25 "/>
</g>
<g clip-path="url(#clip12)" clip-rule="nonzero">
<path style="fill:none;stroke-width:0.533489;stroke-linecap:butt;stroke-linejoin:round;stroke:rgb(100%,100%,100%);stroke-opacity:1;stroke-miterlimit:10;" d="M 426.84375 375.082031 L 426.84375 100.25 "/>
</g>
<g clip-path="url(#clip13)" clip-rule="nonzero">
<path style="fill:none;stroke-width:1.066978;stroke-linecap:butt;stroke-linejoin:round;stroke:rgb(100%,100%,100%);stroke-opacity:1;stroke-miterlimit:10;" d="M 38.152344 342.953125 L 440.84375 342.953125 "/>
</g>
<g clip-path="url(#clip14)" clip-rule="nonzero">
<path style="fill:none;stroke-width:1.066978;stroke-linecap:butt;stroke-linejoin:round;stroke:rgb(100%,100%,100%);stroke-opacity:1;stroke-miterlimit:10;" d="M 38.152344 289.121094 L 440.84375 289.121094 "/>
</g>
<g clip-path="url(#clip15)" clip-rule="nonzero">
<path style="fill:none;stroke-width:1.066978;stroke-linecap:butt;stroke-linejoin:round;stroke:rgb(100%,100%,100%);stroke-opacity:1;stroke-miterlimit:10;" d="M 38.152344 235.289062 L 440.84375 235.289062 "/>
</g>
<g clip-path="url(#clip16)" clip-rule="nonzero">
<path style="fill:none;stroke-width:1.066978;stroke-linecap:butt;stroke-linejoin:round;stroke:rgb(100%,100%,100%);stroke-opacity:1;stroke-miterlimit:10;" d="M 38.152344 181.453125 L 440.84375 181.453125 "/>
</g>
<g clip-path="url(#clip17)" clip-rule="nonzero">
<path style="fill:none;stroke-width:1.066978;stroke-linecap:butt;stroke-linejoin:round;stroke:rgb(100%,100%,100%);stroke-opacity:1;stroke-miterlimit:10;" d="M 38.152344 127.621094 L 440.84375 127.621094 "/>
</g>
<g clip-path="url(#clip18)" clip-rule="nonzero">
<path style="fill:none;stroke-width:1.066978;stroke-linecap:butt;stroke-linejoin:round;stroke:rgb(100%,100%,100%);stroke-opacity:1;stroke-miterlimit:10;" d="M 50.007812 375.082031 L 50.007812 100.25 "/>
</g>
<g clip-path="url(#clip19)" clip-rule="nonzero">
<path style="fill:none;stroke-width:1.066978;stroke-linecap:butt;stroke-linejoin:round;stroke:rgb(100%,100%,100%);stroke-opacity:1;stroke-miterlimit:10;" d="M 157.675781 375.082031 L 157.675781 100.25 "/>
</g>
<g clip-path="url(#clip20)" clip-rule="nonzero">
<path style="fill:none;stroke-width:1.066978;stroke-linecap:butt;stroke-linejoin:round;stroke:rgb(100%,100%,100%);stroke-opacity:1;stroke-miterlimit:10;" d="M 265.34375 375.082031 L 265.34375 100.25 "/>
</g>
<g clip-path="url(#clip21)" clip-rule="nonzero">
<path style="fill:none;stroke-width:1.066978;stroke-linecap:butt;stroke-linejoin:round;stroke:rgb(100%,100%,100%);stroke-opacity:1;stroke-miterlimit:10;" d="M 373.011719 375.082031 L 373.011719 100.25 "/>
</g>
<path style="fill-rule:nonzero;fill:rgb(97.254902%,46.27451%,42.745098%);fill-opacity:1;stroke-width:0.708661;stroke-linecap:round;stroke-linejoin:round;stroke:rgb(97.254902%,46.27451%,42.745098%);stroke-opacity:1;stroke-miterlimit:10;" d="M 60.011719 198.117188 C 60.011719 202.859375 52.898438 202.859375 52.898438 198.117188 C 52.898438 193.378906 60.011719 193.378906 60.011719 198.117188 "/>
<path style="fill-rule:nonzero;fill:rgb(97.254902%,46.27451%,42.745098%);fill-opacity:1;stroke-width:0.708661;stroke-linecap:round;stroke-linejoin:round;stroke:rgb(97.254902%,46.27451%,42.745098%);stroke-opacity:1;stroke-miterlimit:10;" d="M 250.136719 283.09375 C 250.136719 287.835938 243.027344 287.835938 243.027344 283.09375 C 243.027344 278.355469 250.136719 278.355469 250.136719 283.09375 "/>
<path style="fill-rule:nonzero;fill:rgb(0%,74.901961%,76.862745%);fill-opacity:1;stroke-width:0.708661;stroke-linecap:round;stroke-linejoin:round;stroke:rgb(0%,74.901961%,76.862745%);stroke-opacity:1;stroke-miterlimit:10;" d="M 404.210938 112.742188 C 404.210938 117.480469 397.101562 117.480469 397.101562 112.742188 C 397.101562 108 404.210938 108 404.210938 112.742188 "/>
<path style="fill-rule:nonzero;fill:rgb(0%,74.901961%,76.862745%);fill-opacity:1;stroke-width:0.708661;stroke-linecap:round;stroke-linejoin:round;stroke:rgb(0%,74.901961%,76.862745%);stroke-opacity:1;stroke-miterlimit:10;" d="M 426.09375 207.230469 C 426.09375 211.96875 418.984375 211.96875 418.984375 207.230469 C 418.984375 202.488281 426.09375 202.488281 426.09375 207.230469 "/>
<path style="fill-rule:nonzero;fill:rgb(0%,74.901961%,76.862745%);fill-opacity:1;stroke-width:0.708661;stroke-linecap:round;stroke-linejoin:round;stroke:rgb(0%,74.901961%,76.862745%);stroke-opacity:1;stroke-miterlimit:10;" d="M 399.292969 362.589844 C 399.292969 367.328125 392.183594 367.328125 392.183594 362.589844 C 392.183594 357.847656 399.292969 357.847656 399.292969 362.589844 "/>
<path style="fill-rule:nonzero;fill:rgb(97.254902%,46.27451%,42.745098%);fill-opacity:1;stroke-width:0.708661;stroke-linecap:round;stroke-linejoin:round;stroke:rgb(97.254902%,46.27451%,42.745098%);stroke-opacity:1;stroke-miterlimit:10;" d="M 73.640625 247.957031 C 73.640625 252.699219 66.53125 252.699219 66.53125 247.957031 C 66.53125 243.21875 73.640625 243.21875 73.640625 247.957031 "/>
<g style="fill:rgb(30.196078%,30.196078%,30.196078%);fill-opacity:1;">
  <use xlink:href="#glyph0-1" x="20.21875" y="345.555664"/>
  <use xlink:href="#glyph0-2" x="23.149414" y="345.555664"/>
  <use xlink:href="#glyph0-3" x="28.041992" y="345.555664"/>
</g>
<g style="fill:rgb(30.196078%,30.196078%,30.196078%);fill-opacity:1;">
  <use xlink:href="#glyph0-1" x="25.21875" y="291.723633"/>
  <use xlink:href="#glyph0-4" x="28.149414" y="291.723633"/>
</g>
<g style="fill:rgb(30.196078%,30.196078%,30.196078%);fill-opacity:1;">
  <use xlink:href="#glyph0-3" x="28.21875" y="237.891602"/>
</g>
<g style="fill:rgb(30.196078%,30.196078%,30.196078%);fill-opacity:1;">
  <use xlink:href="#glyph0-4" x="28.21875" y="184.055664"/>
</g>
<g style="fill:rgb(30.196078%,30.196078%,30.196078%);fill-opacity:1;">
  <use xlink:href="#glyph0-2" x="23.21875" y="130.223633"/>
  <use xlink:href="#glyph0-3" x="28.111328" y="130.223633"/>
</g>
<path style="fill:none;stroke-width:1.066978;stroke-linecap:butt;stroke-linejoin:round;stroke:rgb(20%,20%,20%);stroke-opacity:1;stroke-miterlimit:10;" d="M 35.410156 342.953125 L 38.152344 342.953125 "/>
<path style="fill:none;stroke-width:1.066978;stroke-linecap:butt;stroke-linejoin:round;stroke:rgb(20%,20%,20%);stroke-opacity:1;stroke-miterlimit:10;" d="M 35.410156 289.121094 L 38.152344 289.121094 "/>
<path style="fill:none;stroke-width:1.066978;stroke-linecap:butt;stroke-linejoin:round;stroke:rgb(20%,20%,20%);stroke-opacity:1;stroke-miterlimit:10;" d="M 35.410156 235.289062 L 38.152344 235.289062 "/>
<path style="fill:none;stroke-width:1.066978;stroke-linecap:butt;stroke-linejoin:round;stroke:rgb(20%,20%,20%);stroke-opacity:1;stroke-miterlimit:10;" d="M 35.410156 181.453125 L 38.152344 181.453125 "/>
<path style="fill:none;stroke-width:1.066978;stroke-linecap:butt;stroke-linejoin:round;stroke:rgb(20%,20%,20%);stroke-opacity:1;stroke-miterlimit:10;" d="M 35.410156 127.621094 L 38.152344 127.621094 "/>
<path style="fill:none;stroke-width:1.066978;stroke-linecap:butt;stroke-linejoin:round;stroke:rgb(20%,20%,20%);stroke-opacity:1;stroke-miterlimit:10;" d="M 50.007812 377.820312 L 50.007812 375.082031 "/>
<path style="fill:none;stroke-width:1.066978;stroke-linecap:butt;stroke-linejoin:round;stroke:rgb(20%,20%,20%);stroke-opacity:1;stroke-miterlimit:10;" d="M 157.675781 377.820312 L 157.675781 375.082031 "/>
<path style="fill:none;stroke-width:1.066978;stroke-linecap:butt;stroke-linejoin:round;stroke:rgb(20%,20%,20%);stroke-opacity:1;stroke-miterlimit:10;" d="M 265.34375 377.820312 L 265.34375 375.082031 "/>
<path style="fill:none;stroke-width:1.066978;stroke-linecap:butt;stroke-linejoin:round;stroke:rgb(20%,20%,20%);stroke-opacity:1;stroke-miterlimit:10;" d="M 373.011719 377.820312 L 373.011719 375.082031 "/>
<g style="fill:rgb(30.196078%,30.196078%,30.196078%);fill-opacity:1;">
  <use xlink:href="#glyph0-1" x="43.507812" y="386.114258"/>
  <use xlink:href="#glyph0-5" x="46.438477" y="386.114258"/>
  <use xlink:href="#glyph0-3" x="51.331055" y="386.114258"/>
</g>
<g style="fill:rgb(30.196078%,30.196078%,30.196078%);fill-opacity:1;">
  <use xlink:href="#glyph0-1" x="151.175781" y="386.114258"/>
  <use xlink:href="#glyph0-2" x="154.106445" y="386.114258"/>
  <use xlink:href="#glyph0-3" x="158.999023" y="386.114258"/>
</g>
<g style="fill:rgb(30.196078%,30.196078%,30.196078%);fill-opacity:1;">
  <use xlink:href="#glyph0-3" x="262.84375" y="386.114258"/>
</g>
<g style="fill:rgb(30.196078%,30.196078%,30.196078%);fill-opacity:1;">
  <use xlink:href="#glyph0-2" x="368.011719" y="386.114258"/>
  <use xlink:href="#glyph0-3" x="372.904297" y="386.114258"/>
</g>
<g style="fill:rgb(0%,0%,0%);fill-opacity:1;">
  <use xlink:href="#glyph1-1" x="192.496094" y="400.37793"/>
  <use xlink:href="#glyph1-2" x="199.833008" y="400.37793"/>
  <use xlink:href="#glyph1-3" x="207.775391" y="400.37793"/>
  <use xlink:href="#glyph1-4" x="213.891602" y="400.37793"/>
  <use xlink:href="#glyph1-5" x="216.949219" y="400.37793"/>
  <use xlink:href="#glyph1-6" x="220.006836" y="400.37793"/>
  <use xlink:href="#glyph1-7" x="226.123047" y="400.37793"/>
  <use xlink:href="#glyph1-8" x="232.239258" y="400.37793"/>
  <use xlink:href="#glyph1-5" x="242.018555" y="400.37793"/>
  <use xlink:href="#glyph1-9" x="245.076172" y="400.37793"/>
  <use xlink:href="#glyph1-10" x="250.356445" y="400.37793"/>
  <use xlink:href="#glyph1-11" x="256.472656" y="400.37793"/>
  <use xlink:href="#glyph1-12" x="260.135742" y="400.37793"/>
  <use xlink:href="#glyph1-10" x="262.578125" y="400.37793"/>
  <use xlink:href="#glyph1-13" x="268.694336" y="400.37793"/>
  <use xlink:href="#glyph1-14" x="274.810547" y="400.37793"/>
  <use xlink:href="#glyph1-15" x="280.310547" y="400.37793"/>
</g>
<g style="fill:rgb(0%,0%,0%);fill-opacity:1;">
  <use xlink:href="#glyph2-1" x="14.108398" y="284.664062"/>
  <use xlink:href="#glyph2-2" x="14.108398" y="277.327148"/>
  <use xlink:href="#glyph2-3" x="14.108398" y="269.384766"/>
  <use xlink:href="#glyph2-4" x="14.108398" y="263.268555"/>
  <use xlink:href="#glyph2-5" x="14.108398" y="260.210938"/>
  <use xlink:href="#glyph2-6" x="14.108398" y="257.15332"/>
  <use xlink:href="#glyph2-7" x="14.108398" y="251.037109"/>
  <use xlink:href="#glyph2-8" x="14.108398" y="244.920898"/>
  <use xlink:href="#glyph2-5" x="14.108398" y="235.141602"/>
  <use xlink:href="#glyph2-9" x="14.108398" y="232.083984"/>
  <use xlink:href="#glyph2-10" x="14.108398" y="226.803711"/>
  <use xlink:href="#glyph2-11" x="14.108398" y="220.6875"/>
  <use xlink:href="#glyph2-12" x="14.108398" y="217.024414"/>
  <use xlink:href="#glyph2-10" x="14.108398" y="214.582031"/>
  <use xlink:href="#glyph2-13" x="14.108398" y="208.46582"/>
  <use xlink:href="#glyph2-14" x="14.108398" y="202.349609"/>
  <use xlink:href="#glyph2-15" x="14.108398" y="196.849609"/>
</g>
<path style=" stroke:none;fill-rule:nonzero;fill:rgb(100%,100%,100%);fill-opacity:1;" d="M 451.800781 269.164062 L 498.519531 269.164062 L 498.519531 206.164062 L 451.800781 206.164062 Z M 451.800781 269.164062 "/>
<g style="fill:rgb(0%,0%,0%);fill-opacity:1;">
  <use xlink:href="#glyph1-16" x="457.28125" y="221.772461"/>
  <use xlink:href="#glyph1-11" x="463.397461" y="221.772461"/>
  <use xlink:href="#glyph1-17" x="467.005859" y="221.772461"/>
  <use xlink:href="#glyph1-18" x="473.12207" y="221.772461"/>
  <use xlink:href="#glyph1-19" x="479.238281" y="221.772461"/>
</g>
<path style="fill-rule:nonzero;fill:rgb(94.901961%,94.901961%,94.901961%);fill-opacity:1;stroke-width:1.066978;stroke-linecap:round;stroke-linejoin:round;stroke:rgb(100%,100%,100%);stroke-opacity:1;stroke-miterlimit:10;" d="M 457.28125 246.402344 L 474.5625 246.402344 L 474.5625 229.121094 L 457.28125 229.121094 Z M 457.28125 246.402344 "/>
<path style="fill-rule:nonzero;fill:rgb(97.254902%,46.27451%,42.745098%);fill-opacity:1;stroke-width:0.708661;stroke-linecap:round;stroke-linejoin:round;stroke:rgb(97.254902%,46.27451%,42.745098%);stroke-opacity:1;stroke-miterlimit:10;" d="M 469.476562 237.765625 C 469.476562 242.503906 462.367188 242.503906 462.367188 237.765625 C 462.367188 233.023438 469.476562 233.023438 469.476562 237.765625 "/>
<path style="fill-rule:nonzero;fill:rgb(94.901961%,94.901961%,94.901961%);fill-opacity:1;stroke-width:1.066978;stroke-linecap:round;stroke-linejoin:round;stroke:rgb(100%,100%,100%);stroke-opacity:1;stroke-miterlimit:10;" d="M 457.28125 263.683594 L 474.5625 263.683594 L 474.5625 246.402344 L 457.28125 246.402344 Z M 457.28125 263.683594 "/>
<path style="fill-rule:nonzero;fill:rgb(0%,74.901961%,76.862745%);fill-opacity:1;stroke-width:0.708661;stroke-linecap:round;stroke-linejoin:round;stroke:rgb(0%,74.901961%,76.862745%);stroke-opacity:1;stroke-miterlimit:10;" d="M 469.476562 255.042969 C 469.476562 259.785156 462.367188 259.785156 462.367188 255.042969 C 462.367188 250.304688 469.476562 250.304688 469.476562 255.042969 "/>
<g style="fill:rgb(0%,0%,0%);fill-opacity:1;">
  <use xlink:href="#glyph0-6" x="480.042969" y="240.368164"/>
  <use xlink:href="#glyph0-7" x="484.935547" y="240.368164"/>
  <use xlink:href="#glyph0-8" x="489.740234" y="240.368164"/>
</g>
<g style="fill:rgb(0%,0%,0%);fill-opacity:1;">
  <use xlink:href="#glyph0-9" x="480.042969" y="257.645508"/>
  <use xlink:href="#glyph0-10" x="484.267578" y="257.645508"/>
</g>
</g>
</svg>
