<?xml version="1.0" encoding="UTF-8"?>
<svg xmlns="http://www.w3.org/2000/svg" xmlns:xlink="http://www.w3.org/1999/xlink" width="504pt" height="504pt" viewBox="0 0 504 504" version="1.1">
<defs>
<g>
<symbol overflow="visible" id="glyph0-0">
<path style="stroke:none;" d=""/>
</symbol>
<symbol overflow="visible" id="glyph0-1">
<path style="stroke:none;" d="M 2.5 -2.75 L 0.40625 -2.75 L 0.40625 -2.109375 L 2.5 -2.109375 Z M 2.5 -2.75 "/>
</symbol>
<symbol overflow="visible" id="glyph0-2">
<path style="stroke:none;" d="M 2.28125 -4.53125 L 2.28125 0 L 3.046875 0 L 3.046875 -6.359375 L 2.546875 -6.359375 C 2.265625 -5.390625 2.09375 -5.25 0.890625 -5.09375 L 0.890625 -4.53125 Z M 2.28125 -4.53125 "/>
</symbol>
<symbol overflow="visible" id="glyph0-3">
<path style="stroke:none;" d="M 2.421875 -6.359375 C 1.84375 -6.359375 1.3125 -6.09375 0.984375 -5.671875 C 0.578125 -5.109375 0.375 -4.25 0.375 -3.078125 C 0.375 -0.9375 1.078125 0.203125 2.421875 0.203125 C 3.734375 0.203125 4.453125 -0.9375 4.453125 -3.03125 C 4.453125 -4.25 4.265625 -5.078125 3.859375 -5.671875 C 3.53125 -6.109375 3.015625 -6.359375 2.421875 -6.359375 Z M 2.421875 -5.671875 C 3.25 -5.671875 3.671875 -4.828125 3.671875 -3.09375 C 3.671875 -1.28125 3.265625 -0.4375 2.40625 -0.4375 C 1.578125 -0.4375 1.171875 -1.3125 1.171875 -3.0625 C 1.171875 -4.828125 1.578125 -5.671875 2.421875 -5.671875 Z M 2.421875 -5.671875 "/>
</symbol>
<symbol overflow="visible" id="glyph0-4">
<path style="stroke:none;" d="M 4.453125 -0.765625 L 1.171875 -0.765625 C 1.25 -1.296875 1.53125 -1.625 2.296875 -2.09375 L 3.171875 -2.59375 C 4.046875 -3.0625 4.5 -3.71875 4.5 -4.5 C 4.5 -5.03125 4.28125 -5.53125 3.921875 -5.875 C 3.546875 -6.203125 3.09375 -6.359375 2.5 -6.359375 C 1.703125 -6.359375 1.125 -6.078125 0.78125 -5.53125 C 0.546875 -5.203125 0.453125 -4.796875 0.4375 -4.15625 L 1.21875 -4.15625 C 1.234375 -4.59375 1.296875 -4.84375 1.40625 -5.0625 C 1.59375 -5.4375 2 -5.6875 2.46875 -5.6875 C 3.171875 -5.6875 3.703125 -5.171875 3.703125 -4.484375 C 3.703125 -3.96875 3.40625 -3.53125 2.859375 -3.21875 L 2.046875 -2.75 C 0.75 -2 0.375 -1.40625 0.296875 -0.015625 L 4.453125 -0.015625 Z M 4.453125 -0.765625 "/>
</symbol>
<symbol overflow="visible" id="glyph0-5">
<path style="stroke:none;" d="M 4.875 0 L 6.234375 -4.609375 L 5.40625 -4.609375 L 4.484375 -1.015625 L 3.578125 -4.609375 L 2.6875 -4.609375 L 1.796875 -1.015625 L 0.859375 -4.609375 L 0.046875 -4.609375 L 1.390625 0 L 2.21875 0 L 3.109375 -3.609375 L 4.03125 0 Z M 4.875 0 "/>
</symbol>
<symbol overflow="visible" id="glyph0-6">
<path style="stroke:none;" d="M 2.234375 -4.609375 L 1.484375 -4.609375 L 1.484375 -5.875 L 0.75 -5.875 L 0.75 -4.609375 L 0.125 -4.609375 L 0.125 -4.015625 L 0.75 -4.015625 L 0.75 -0.53125 C 0.75 -0.046875 1.0625 0.203125 1.640625 0.203125 C 1.828125 0.203125 1.984375 0.1875 2.234375 0.140625 L 2.234375 -0.46875 C 2.125 -0.453125 2.03125 -0.4375 1.875 -0.4375 C 1.5625 -0.4375 1.484375 -0.53125 1.484375 -0.859375 L 1.484375 -4.015625 L 2.234375 -4.015625 Z M 2.234375 -4.609375 "/>
</symbol>
<symbol overflow="visible" id="glyph0-7">
<path style="stroke:none;" d="M 1.234375 -6.40625 L 0.515625 -6.40625 L 0.515625 0 L 1.234375 0 L 1.234375 -1.796875 L 1.953125 -2.5 L 3.515625 0 L 4.421875 0 L 2.53125 -3.015625 L 4.140625 -4.609375 L 3.1875 -4.609375 L 1.234375 -2.65625 Z M 1.234375 -6.40625 "/>
</symbol>
<symbol overflow="visible" id="glyph0-8">
<path style="stroke:none;" d="M 2.390625 -4.734375 C 1.09375 -4.734375 0.3125 -3.8125 0.3125 -2.265625 C 0.3125 -0.71875 1.09375 0.203125 2.40625 0.203125 C 3.703125 0.203125 4.484375 -0.71875 4.484375 -2.234375 C 4.484375 -3.828125 3.734375 -4.734375 2.390625 -4.734375 Z M 2.40625 -4.0625 C 3.234375 -4.0625 3.71875 -3.390625 3.71875 -2.25 C 3.71875 -1.15625 3.203125 -0.46875 2.40625 -0.46875 C 1.578125 -0.46875 1.078125 -1.15625 1.078125 -2.265625 C 1.078125 -3.390625 1.578125 -4.0625 2.40625 -4.0625 Z M 2.40625 -4.0625 "/>
</symbol>
<symbol overflow="visible" id="glyph1-0">
<path style="stroke:none;" d=""/>
</symbol>
<symbol overflow="visible" id="glyph1-1">
<path style="stroke:none;" d="M 2.03125 -3.40625 L 4.546875 -3.40625 C 5.171875 -3.40625 5.671875 -3.59375 6.09375 -3.96875 C 6.578125 -4.40625 6.78125 -4.921875 6.78125 -5.671875 C 6.78125 -7.171875 5.890625 -8.015625 4.3125 -8.015625 L 1 -8.015625 L 1 0 L 2.03125 0 Z M 2.03125 -4.296875 L 2.03125 -7.109375 L 4.15625 -7.109375 C 5.140625 -7.109375 5.71875 -6.59375 5.71875 -5.703125 C 5.71875 -4.828125 5.140625 -4.296875 4.15625 -4.296875 Z M 2.03125 -4.296875 "/>
</symbol>
<symbol overflow="visible" id="glyph1-2">
<path style="stroke:none;" d="M 7.28125 -5.53125 C 6.96875 -7.296875 5.953125 -8.15625 4.1875 -8.15625 C 3.109375 -8.15625 2.25 -7.8125 1.65625 -7.15625 C 0.921875 -6.359375 0.53125 -5.21875 0.53125 -3.921875 C 0.53125 -2.59375 0.9375 -1.46875 1.6875 -0.6875 C 2.3125 -0.046875 3.109375 0.25 4.140625 0.25 C 6.109375 0.25 7.203125 -0.796875 7.453125 -2.921875 L 6.390625 -2.921875 C 6.296875 -2.375 6.1875 -2 6.03125 -1.6875 C 5.703125 -1.015625 5.015625 -0.65625 4.15625 -0.65625 C 2.5625 -0.65625 1.546875 -1.921875 1.546875 -3.921875 C 1.546875 -5.984375 2.515625 -7.25 4.0625 -7.25 C 4.71875 -7.25 5.328125 -7.0625 5.65625 -6.75 C 5.953125 -6.46875 6.109375 -6.140625 6.234375 -5.53125 Z M 7.28125 -5.53125 "/>
</symbol>
<symbol overflow="visible" id="glyph1-3">
<path style="stroke:none;" d="M 2.84375 -5.671875 L 2.84375 0 L 3.8125 0 L 3.8125 -7.953125 L 3.171875 -7.953125 C 2.84375 -6.734375 2.625 -6.5625 1.125 -6.375 L 1.125 -5.671875 Z M 2.84375 -5.671875 "/>
</symbol>
<symbol overflow="visible" id="glyph1-4">
<path style="stroke:none;" d="M 2.359375 -1.140625 L 1.203125 -1.140625 L 1.203125 0 L 2.359375 0 Z M 2.359375 -5.765625 L 1.203125 -5.765625 L 1.203125 -4.625 L 2.359375 -4.625 Z M 2.359375 -5.765625 "/>
</symbol>
<symbol overflow="visible" id="glyph1-5">
<path style="stroke:none;" d=""/>
</symbol>
<symbol overflow="visible" id="glyph1-6">
<path style="stroke:none;" d="M 3.59375 -1.921875 L 3.59375 0 L 4.5625 0 L 4.5625 -1.921875 L 5.71875 -1.921875 L 5.71875 -2.796875 L 4.5625 -2.796875 L 4.5625 -7.953125 L 3.84375 -7.953125 L 0.3125 -2.953125 L 0.3125 -1.921875 Z M 3.59375 -2.796875 L 1.15625 -2.796875 L 3.59375 -6.296875 Z M 3.59375 -2.796875 "/>
</symbol>
<symbol overflow="visible" id="glyph1-7">
<path style="stroke:none;" d="M 5.484375 -5.890625 C 5.296875 -7.1875 4.453125 -7.953125 3.265625 -7.953125 C 2.40625 -7.953125 1.640625 -7.53125 1.171875 -6.8125 C 0.6875 -6.03125 0.46875 -5.078125 0.46875 -3.625 C 0.46875 -2.28125 0.65625 -1.4375 1.140625 -0.734375 C 1.546875 -0.09375 2.234375 0.25 3.09375 0.25 C 4.578125 0.25 5.640625 -0.859375 5.640625 -2.40625 C 5.640625 -3.875 4.65625 -4.90625 3.25 -4.90625 C 2.484375 -4.90625 1.875 -4.625 1.46875 -4.03125 C 1.46875 -6 2.09375 -7.09375 3.203125 -7.09375 C 3.890625 -7.09375 4.359375 -6.65625 4.515625 -5.890625 Z M 3.140625 -4.046875 C 4.0625 -4.046875 4.65625 -3.390625 4.65625 -2.328125 C 4.65625 -1.328125 4 -0.609375 3.109375 -0.609375 C 2.203125 -0.609375 1.515625 -1.359375 1.515625 -2.375 C 1.515625 -3.359375 2.171875 -4.046875 3.140625 -4.046875 Z M 3.140625 -4.046875 "/>
</symbol>
<symbol overflow="visible" id="glyph1-8">
<path style="stroke:none;" d="M 2.1875 -7.53125 C 1.15625 -7.53125 0.3125 -6.6875 0.3125 -5.65625 C 0.3125 -4.625 1.15625 -3.765625 2.203125 -3.765625 C 3.21875 -3.765625 4.0625 -4.625 4.0625 -5.625 C 4.0625 -6.703125 3.25 -7.53125 2.1875 -7.53125 Z M 2.1875 -6.765625 C 2.8125 -6.765625 3.3125 -6.265625 3.3125 -5.640625 C 3.3125 -5.03125 2.8125 -4.546875 2.203125 -4.546875 C 1.578125 -4.546875 1.078125 -5.03125 1.078125 -5.65625 C 1.078125 -6.265625 1.578125 -6.765625 2.1875 -6.765625 Z M 6.703125 -7.796875 L 2.359375 0.21875 L 3.078125 0.21875 L 7.421875 -7.796875 Z M 7.5625 -3.546875 C 6.53125 -3.546875 5.703125 -2.703125 5.703125 -1.671875 C 5.703125 -0.625 6.53125 0.203125 7.578125 0.203125 C 8.609375 0.203125 9.453125 -0.625 9.453125 -1.65625 C 9.453125 -2.703125 8.625 -3.546875 7.5625 -3.546875 Z M 7.5625 -2.765625 C 8.1875 -2.765625 8.6875 -2.28125 8.6875 -1.65625 C 8.6875 -1.0625 8.1875 -0.5625 7.578125 -0.5625 C 6.953125 -0.5625 6.453125 -1.0625 6.453125 -1.671875 C 6.453125 -2.28125 6.953125 -2.765625 7.5625 -2.765625 Z M 7.5625 -2.765625 "/>
</symbol>
<symbol overflow="visible" id="glyph1-9">
<path style="stroke:none;" d="M 3.140625 0 L 5.34375 -5.765625 L 4.3125 -5.765625 L 2.6875 -1.09375 L 1.140625 -5.765625 L 0.109375 -5.765625 L 2.140625 0 Z M 3.140625 0 "/>
</symbol>
<symbol overflow="visible" id="glyph1-10">
<path style="stroke:none;" d="M 5.890625 -0.53125 C 5.78125 -0.515625 5.734375 -0.515625 5.6875 -0.515625 C 5.375 -0.515625 5.1875 -0.6875 5.1875 -0.96875 L 5.1875 -4.359375 C 5.1875 -5.375 4.4375 -5.921875 3.03125 -5.921875 C 2.171875 -5.921875 1.5 -5.6875 1.109375 -5.265625 C 0.84375 -4.96875 0.734375 -4.625 0.71875 -4.0625 L 1.640625 -4.0625 C 1.71875 -4.765625 2.140625 -5.078125 2.984375 -5.078125 C 3.828125 -5.078125 4.28125 -4.78125 4.28125 -4.21875 L 4.28125 -3.984375 C 4.265625 -3.59375 4.0625 -3.4375 3.328125 -3.34375 C 2.03125 -3.171875 1.828125 -3.140625 1.46875 -2.984375 C 0.796875 -2.703125 0.46875 -2.203125 0.46875 -1.453125 C 0.46875 -0.40625 1.1875 0.25 2.359375 0.25 C 3.078125 0.25 3.65625 0 4.3125 -0.59375 C 4.375 0 4.65625 0.25 5.265625 0.25 C 5.453125 0.25 5.578125 0.234375 5.890625 0.15625 Z M 4.28125 -1.8125 C 4.28125 -1.5 4.1875 -1.3125 3.921875 -1.0625 C 3.546875 -0.71875 3.09375 -0.546875 2.546875 -0.546875 C 1.84375 -0.546875 1.421875 -0.890625 1.421875 -1.46875 C 1.421875 -2.078125 1.8125 -2.390625 2.8125 -2.53125 C 3.78125 -2.65625 3.96875 -2.703125 4.28125 -2.84375 Z M 4.28125 -1.8125 "/>
</symbol>
<symbol overflow="visible" id="glyph1-11">
<path style="stroke:none;" d="M 0.765625 -5.765625 L 0.765625 0 L 1.6875 0 L 1.6875 -2.984375 C 1.6875 -4.375 2.265625 -5 3.53125 -4.96875 L 3.53125 -5.890625 C 3.375 -5.921875 3.28125 -5.921875 3.171875 -5.921875 C 2.578125 -5.921875 2.140625 -5.578125 1.609375 -4.71875 L 1.609375 -5.765625 Z M 0.765625 -5.765625 "/>
</symbol>
<symbol overflow="visible" id="glyph1-12">
<path style="stroke:none;" d="M 1.65625 -5.765625 L 0.734375 -5.765625 L 0.734375 0 L 1.65625 0 Z M 1.65625 -8.015625 L 0.71875 -8.015625 L 0.71875 -6.859375 L 1.65625 -6.859375 Z M 1.65625 -8.015625 "/>
</symbol>
<symbol overflow="visible" id="glyph1-13">
<path style="stroke:none;" d="M 0.765625 -5.765625 L 0.765625 0 L 1.6875 0 L 1.6875 -3.171875 C 1.6875 -4.359375 2.3125 -5.125 3.25 -5.125 C 3.984375 -5.125 4.4375 -4.6875 4.4375 -4 L 4.4375 0 L 5.359375 0 L 5.359375 -4.359375 C 5.359375 -5.3125 4.640625 -5.921875 3.53125 -5.921875 C 2.671875 -5.921875 2.125 -5.59375 1.609375 -4.796875 L 1.609375 -5.765625 Z M 0.765625 -5.765625 "/>
</symbol>
<symbol overflow="visible" id="glyph1-14">
<path style="stroke:none;" d="M 5.1875 -3.828125 C 5.140625 -4.390625 5.015625 -4.75 4.796875 -5.078125 C 4.40625 -5.609375 3.703125 -5.921875 2.90625 -5.921875 C 1.34375 -5.921875 0.34375 -4.703125 0.34375 -2.78125 C 0.34375 -0.921875 1.328125 0.25 2.890625 0.25 C 4.265625 0.25 5.140625 -0.578125 5.25 -1.984375 L 4.328125 -1.984375 C 4.171875 -1.0625 3.703125 -0.59375 2.921875 -0.59375 C 1.90625 -0.59375 1.296875 -1.421875 1.296875 -2.78125 C 1.296875 -4.21875 1.890625 -5.078125 2.890625 -5.078125 C 3.65625 -5.078125 4.140625 -4.625 4.25 -3.828125 Z M 5.1875 -3.828125 "/>
</symbol>
<symbol overflow="visible" id="glyph1-15">
<path style="stroke:none;" d="M 5.640625 -2.578125 C 5.640625 -3.453125 5.578125 -3.984375 5.40625 -4.40625 C 5.03125 -5.359375 4.15625 -5.921875 3.078125 -5.921875 C 1.46875 -5.921875 0.4375 -4.703125 0.4375 -2.8125 C 0.4375 -0.90625 1.4375 0.25 3.0625 0.25 C 4.375 0.25 5.296875 -0.5 5.515625 -1.75 L 4.59375 -1.75 C 4.34375 -0.984375 3.828125 -0.59375 3.09375 -0.59375 C 2.515625 -0.59375 2.015625 -0.859375 1.703125 -1.34375 C 1.484375 -1.671875 1.40625 -2 1.390625 -2.578125 Z M 1.421875 -3.328125 C 1.5 -4.390625 2.140625 -5.078125 3.0625 -5.078125 C 4 -5.078125 4.65625 -4.359375 4.65625 -3.328125 Z M 1.421875 -3.328125 "/>
</symbol>
<symbol overflow="visible" id="glyph1-16">
<path style="stroke:none;" d="M 4.4375 -5.765625 L 4.4375 -4.921875 C 3.984375 -5.625 3.46875 -5.921875 2.75 -5.921875 C 1.359375 -5.921875 0.390625 -4.625 0.390625 -2.78125 C 0.390625 -1.8125 0.609375 -1.109375 1.109375 -0.53125 C 1.546875 -0.015625 2.09375 0.25 2.6875 0.25 C 3.375 0.25 3.875 -0.0625 4.359375 -0.78125 L 4.359375 -0.484375 C 4.359375 1.0625 3.921875 1.625 2.78125 1.625 C 2 1.625 1.59375 1.3125 1.5 0.65625 L 0.578125 0.65625 C 0.65625 1.734375 1.5 2.390625 2.765625 2.390625 C 3.609375 2.390625 4.3125 2.125 4.6875 1.65625 C 5.125 1.125 5.296875 0.40625 5.296875 -0.953125 L 5.296875 -5.765625 Z M 2.84375 -5.078125 C 3.8125 -5.078125 4.359375 -4.265625 4.359375 -2.8125 C 4.359375 -1.40625 3.796875 -0.59375 2.84375 -0.59375 C 1.890625 -0.59375 1.34375 -1.421875 1.34375 -2.84375 C 1.34375 -4.25 1.890625 -5.078125 2.84375 -5.078125 Z M 2.84375 -5.078125 "/>
</symbol>
<symbol overflow="visible" id="glyph1-17">
<path style="stroke:none;" d="M 2.984375 -5.921875 C 1.359375 -5.921875 0.390625 -4.78125 0.390625 -2.84375 C 0.390625 -0.890625 1.359375 0.25 3 0.25 C 4.625 0.25 5.609375 -0.90625 5.609375 -2.796875 C 5.609375 -4.796875 4.65625 -5.921875 2.984375 -5.921875 Z M 3 -5.078125 C 4.03125 -5.078125 4.65625 -4.234375 4.65625 -2.8125 C 4.65625 -1.4375 4.015625 -0.59375 3 -0.59375 C 1.984375 -0.59375 1.359375 -1.4375 1.359375 -2.84375 C 1.359375 -4.234375 1.984375 -5.078125 3 -5.078125 Z M 3 -5.078125 "/>
</symbol>
<symbol overflow="visible" id="glyph1-18">
<path style="stroke:none;" d="M 5.296875 0 L 5.296875 -5.765625 L 4.390625 -5.765625 L 4.390625 -2.5 C 4.390625 -1.3125 3.765625 -0.546875 2.8125 -0.546875 C 2.09375 -0.546875 1.625 -0.984375 1.625 -1.6875 L 1.625 -5.765625 L 0.71875 -5.765625 L 0.71875 -1.3125 C 0.71875 -0.359375 1.4375 0.25 2.546875 0.25 C 3.40625 0.25 3.9375 -0.046875 4.484375 -0.796875 L 4.484375 0 Z M 5.296875 0 "/>
</symbol>
<symbol overflow="visible" id="glyph1-19">
<path style="stroke:none;" d="M 0.59375 2.390625 L 1.515625 2.390625 L 1.515625 -0.609375 C 2 -0.015625 2.546875 0.25 3.28125 0.25 C 4.78125 0.25 5.75 -0.953125 5.75 -2.78125 C 5.75 -4.71875 4.8125 -5.921875 3.28125 -5.921875 C 2.5 -5.921875 1.875 -5.578125 1.4375 -4.890625 L 1.4375 -5.765625 L 0.59375 -5.765625 Z M 3.125 -5.078125 C 4.140625 -5.078125 4.796875 -4.1875 4.796875 -2.8125 C 4.796875 -1.5 4.125 -0.609375 3.125 -0.609375 C 2.140625 -0.609375 1.515625 -1.484375 1.515625 -2.84375 C 1.515625 -4.1875 2.140625 -5.078125 3.125 -5.078125 Z M 3.125 -5.078125 "/>
</symbol>
<symbol overflow="visible" id="glyph2-0">
<path style="stroke:none;" d=""/>
</symbol>
<symbol overflow="visible" id="glyph2-1">
<path style="stroke:none;" d="M -3.40625 -2.03125 L -3.40625 -4.546875 C -3.40625 -5.171875 -3.59375 -5.671875 -3.96875 -6.09375 C -4.40625 -6.578125 -4.921875 -6.78125 -5.671875 -6.78125 C -7.171875 -6.78125 -8.015625 -5.890625 -8.015625 -4.3125 L -8.015625 -1 L 0 -1 L 0 -2.03125 Z M -4.296875 -2.03125 L -7.109375 -2.03125 L -7.109375 -4.15625 C -7.109375 -5.140625 -6.59375 -5.71875 -5.703125 -5.71875 C -4.828125 -5.71875 -4.296875 -5.140625 -4.296875 -4.15625 Z M -4.296875 -2.03125 "/>
</symbol>
<symbol overflow="visible" id="glyph2-2">
<path style="stroke:none;" d="M -5.53125 -7.28125 C -7.296875 -6.96875 -8.15625 -5.953125 -8.15625 -4.1875 C -8.15625 -3.109375 -7.8125 -2.25 -7.15625 -1.65625 C -6.359375 -0.921875 -5.21875 -0.53125 -3.921875 -0.53125 C -2.59375 -0.53125 -1.46875 -0.9375 -0.6875 -1.6875 C -0.046875 -2.3125 0.25 -3.109375 0.25 -4.140625 C 0.25 -6.109375 -0.796875 -7.203125 -2.921875 -7.453125 L -2.921875 -6.390625 C -2.375 -6.296875 -2 -6.1875 -1.6875 -6.03125 C -1.015625 -5.703125 -0.65625 -5.015625 -0.65625 -4.15625 C -0.65625 -2.5625 -1.921875 -1.546875 -3.921875 -1.546875 C -5.984375 -1.546875 -7.25 -2.515625 -7.25 -4.0625 C -7.25 -4.71875 -7.0625 -5.328125 -6.75 -5.65625 C -6.46875 -5.953125 -6.140625 -6.109375 -5.53125 -6.234375 Z M -5.53125 -7.28125 "/>
</symbol>
<symbol overflow="visible" id="glyph2-3">
<path style="stroke:none;" d="M -0.953125 -5.5625 L -0.953125 -1.46875 C -1.609375 -1.5625 -2.03125 -1.90625 -2.625 -2.875 L -3.234375 -3.96875 C -3.84375 -5.0625 -4.65625 -5.625 -5.625 -5.625 C -6.296875 -5.625 -6.90625 -5.359375 -7.34375 -4.890625 C -7.75 -4.4375 -7.953125 -3.859375 -7.953125 -3.125 C -7.953125 -2.140625 -7.59375 -1.390625 -6.921875 -0.96875 C -6.5 -0.6875 -6 -0.578125 -5.203125 -0.546875 L -5.203125 -1.515625 C -5.734375 -1.546875 -6.0625 -1.609375 -6.328125 -1.75 C -6.8125 -2 -7.109375 -2.515625 -7.109375 -3.09375 C -7.109375 -3.96875 -6.46875 -4.625 -5.609375 -4.625 C -4.96875 -4.625 -4.421875 -4.265625 -4.03125 -3.578125 L -3.4375 -2.5625 C -2.5 -0.9375 -1.75 -0.46875 -0.015625 -0.375 L -0.015625 -5.5625 Z M -0.953125 -5.5625 "/>
</symbol>
<symbol overflow="visible" id="glyph2-4">
<path style="stroke:none;" d="M -1.140625 -2.359375 L -1.140625 -1.203125 L 0 -1.203125 L 0 -2.359375 Z M -5.765625 -2.359375 L -5.765625 -1.203125 L -4.625 -1.203125 L -4.625 -2.359375 Z M -5.765625 -2.359375 "/>
</symbol>
<symbol overflow="visible" id="glyph2-5">
<path style="stroke:none;" d=""/>
</symbol>
<symbol overflow="visible" id="glyph2-6">
<path style="stroke:none;" d="M -1.8125 -0.578125 C -0.515625 -0.765625 0.25 -1.609375 0.25 -2.796875 C 0.25 -3.65625 -0.171875 -4.4375 -0.875 -4.890625 C -1.65625 -5.375 -2.625 -5.59375 -4.0625 -5.59375 C -5.40625 -5.59375 -6.265625 -5.40625 -6.96875 -4.9375 C -7.609375 -4.515625 -7.953125 -3.828125 -7.953125 -2.96875 C -7.953125 -1.484375 -6.84375 -0.421875 -5.296875 -0.421875 C -3.84375 -0.421875 -2.8125 -1.40625 -2.8125 -2.8125 C -2.8125 -3.546875 -3.0625 -4.109375 -3.671875 -4.59375 C -1.6875 -4.59375 -0.609375 -3.96875 -0.609375 -2.859375 C -0.609375 -2.171875 -1.046875 -1.703125 -1.8125 -1.546875 Z M -7.109375 -2.953125 C -7.109375 -3.859375 -6.34375 -4.546875 -5.328125 -4.546875 C -4.34375 -4.546875 -3.65625 -3.890625 -3.65625 -2.921875 C -3.65625 -1.984375 -4.328125 -1.40625 -5.375 -1.40625 C -6.375 -1.40625 -7.109375 -2.0625 -7.109375 -2.953125 Z M -7.109375 -2.953125 "/>
</symbol>
<symbol overflow="visible" id="glyph2-7">
<path style="stroke:none;" d="M -7.53125 -2.1875 C -7.53125 -1.15625 -6.6875 -0.3125 -5.65625 -0.3125 C -4.625 -0.3125 -3.765625 -1.15625 -3.765625 -2.203125 C -3.765625 -3.21875 -4.625 -4.0625 -5.625 -4.0625 C -6.703125 -4.0625 -7.53125 -3.25 -7.53125 -2.1875 Z M -6.765625 -2.1875 C -6.765625 -2.8125 -6.265625 -3.3125 -5.640625 -3.3125 C -5.03125 -3.3125 -4.546875 -2.8125 -4.546875 -2.203125 C -4.546875 -1.578125 -5.03125 -1.078125 -5.65625 -1.078125 C -6.265625 -1.078125 -6.765625 -1.578125 -6.765625 -2.1875 Z M -7.796875 -6.703125 L 0.21875 -2.359375 L 0.21875 -3.078125 L -7.796875 -7.421875 Z M -3.546875 -7.5625 C -3.546875 -6.53125 -2.703125 -5.703125 -1.671875 -5.703125 C -0.625 -5.703125 0.203125 -6.53125 0.203125 -7.578125 C 0.203125 -8.609375 -0.625 -9.453125 -1.65625 -9.453125 C -2.703125 -9.453125 -3.546875 -8.625 -3.546875 -7.5625 Z M -2.765625 -7.5625 C -2.765625 -8.1875 -2.28125 -8.6875 -1.65625 -8.6875 C -1.0625 -8.6875 -0.5625 -8.1875 -0.5625 -7.578125 C -0.5625 -6.953125 -1.0625 -6.453125 -1.671875 -6.453125 C -2.28125 -6.453125 -2.765625 -6.953125 -2.765625 -7.5625 Z M -2.765625 -7.5625 "/>
</symbol>
<symbol overflow="visible" id="glyph2-8">
<path style="stroke:none;" d="M 0 -3.140625 L -5.765625 -5.34375 L -5.765625 -4.3125 L -1.09375 -2.6875 L -5.765625 -1.140625 L -5.765625 -0.109375 L 0 -2.140625 Z M 0 -3.140625 "/>
</symbol>
<symbol overflow="visible" id="glyph2-9">
<path style="stroke:none;" d="M -0.53125 -5.890625 C -0.515625 -5.78125 -0.515625 -5.734375 -0.515625 -5.6875 C -0.515625 -5.375 -0.6875 -5.1875 -0.96875 -5.1875 L -4.359375 -5.1875 C -5.375 -5.1875 -5.921875 -4.4375 -5.921875 -3.03125 C -5.921875 -2.171875 -5.6875 -1.5 -5.265625 -1.109375 C -4.96875 -0.84375 -4.625 -0.734375 -4.0625 -0.71875 L -4.0625 -1.640625 C -4.765625 -1.71875 -5.078125 -2.140625 -5.078125 -2.984375 C -5.078125 -3.828125 -4.78125 -4.28125 -4.21875 -4.28125 L -3.984375 -4.28125 C -3.59375 -4.265625 -3.4375 -4.0625 -3.34375 -3.328125 C -3.171875 -2.03125 -3.140625 -1.828125 -2.984375 -1.46875 C -2.703125 -0.796875 -2.203125 -0.46875 -1.453125 -0.46875 C -0.40625 -0.46875 0.25 -1.1875 0.25 -2.359375 C 0.25 -3.078125 0 -3.65625 -0.59375 -4.3125 C 0 -4.375 0.25 -4.65625 0.25 -5.265625 C 0.25 -5.453125 0.234375 -5.578125 0.15625 -5.890625 Z M -1.8125 -4.28125 C -1.5 -4.28125 -1.3125 -4.1875 -1.0625 -3.921875 C -0.71875 -3.546875 -0.546875 -3.09375 -0.546875 -2.546875 C -0.546875 -1.84375 -0.890625 -1.421875 -1.46875 -1.421875 C -2.078125 -1.421875 -2.390625 -1.8125 -2.53125 -2.8125 C -2.65625 -3.78125 -2.703125 -3.96875 -2.84375 -4.28125 Z M -1.8125 -4.28125 "/>
</symbol>
<symbol overflow="visible" id="glyph2-10">
<path style="stroke:none;" d="M -5.765625 -0.765625 L 0 -0.765625 L 0 -1.6875 L -2.984375 -1.6875 C -4.375 -1.6875 -5 -2.265625 -4.96875 -3.53125 L -5.890625 -3.53125 C -5.921875 -3.375 -5.921875 -3.28125 -5.921875 -3.171875 C -5.921875 -2.578125 -5.578125 -2.140625 -4.71875 -1.609375 L -5.765625 -1.609375 Z M -5.765625 -0.765625 "/>
</symbol>
<symbol overflow="visible" id="glyph2-11">
<path style="stroke:none;" d="M -5.765625 -1.65625 L -5.765625 -0.734375 L 0 -0.734375 L 0 -1.65625 Z M -8.015625 -1.65625 L -8.015625 -0.71875 L -6.859375 -0.71875 L -6.859375 -1.65625 Z M -8.015625 -1.65625 "/>
</symbol>
<symbol overflow="visible" id="glyph2-12">
<path style="stroke:none;" d="M -5.765625 -0.765625 L 0 -0.765625 L 0 -1.6875 L -3.171875 -1.6875 C -4.359375 -1.6875 -5.125 -2.3125 -5.125 -3.25 C -5.125 -3.984375 -4.6875 -4.4375 -4 -4.4375 L 0 -4.4375 L 0 -5.359375 L -4.359375 -5.359375 C -5.3125 -5.359375 -5.921875 -4.640625 -5.921875 -3.53125 C -5.921875 -2.671875 -5.59375 -2.125 -4.796875 -1.609375 L -5.765625 -1.609375 Z M -5.765625 -0.765625 "/>
</symbol>
<symbol overflow="visible" id="glyph2-13">
<path style="stroke:none;" d="M -3.828125 -5.1875 C -4.390625 -5.140625 -4.75 -5.015625 -5.078125 -4.796875 C -5.609375 -4.40625 -5.921875 -3.703125 -5.921875 -2.90625 C -5.921875 -1.34375 -4.703125 -0.34375 -2.78125 -0.34375 C -0.921875 -0.34375 0.25 -1.328125 0.25 -2.890625 C 0.25 -4.265625 -0.578125 -5.140625 -1.984375 -5.25 L -1.984375 -4.328125 C -1.0625 -4.171875 -0.59375 -3.703125 -0.59375 -2.921875 C -0.59375 -1.90625 -1.421875 -1.296875 -2.78125 -1.296875 C -4.21875 -1.296875 -5.078125 -1.890625 -5.078125 -2.890625 C -5.078125 -3.65625 -4.625 -4.140625 -3.828125 -4.25 Z M -3.828125 -5.1875 "/>
</symbol>
<symbol overflow="visible" id="glyph2-14">
<path style="stroke:none;" d="M -2.578125 -5.640625 C -3.453125 -5.640625 -3.984375 -5.578125 -4.40625 -5.40625 C -5.359375 -5.03125 -5.921875 -4.15625 -5.921875 -3.078125 C -5.921875 -1.46875 -4.703125 -0.4375 -2.8125 -0.4375 C -0.90625 -0.4375 0.25 -1.4375 0.25 -3.0625 C 0.25 -4.375 -0.5 -5.296875 -1.75 -5.515625 L -1.75 -4.59375 C -0.984375 -4.34375 -0.59375 -3.828125 -0.59375 -3.09375 C -0.59375 -2.515625 -0.859375 -2.015625 -1.34375 -1.703125 C -1.671875 -1.484375 -2 -1.40625 -2.578125 -1.390625 Z M -3.328125 -1.421875 C -4.390625 -1.5 -5.078125 -2.140625 -5.078125 -3.0625 C -5.078125 -4 -4.359375 -4.65625 -3.328125 -4.65625 Z M -3.328125 -1.421875 "/>
</symbol>
</g>
<clipPath id="clip1">
  <path d="M 0 47.789062 L 504 47.789062 L 504 456.210938 L 0 456.210938 Z M 0 47.789062 "/>
</clipPath>
<clipPath id="clip2">
  <path d="M 38.152344 53.269531 L 444.84375 53.269531 L 444.84375 422.0625 L 38.152344 422.0625 Z M 38.152344 53.269531 "/>
</clipPath>
<clipPath id="clip3">
  <path d="M 38.152344 382 L 444.84375 382 L 444.84375 383 L 38.152344 383 Z M 38.152344 382 "/>
</clipPath>
<clipPath id="clip4">
  <path d="M 38.152344 258 L 444.84375 258 L 444.84375 260 L 38.152344 260 Z M 38.152344 258 "/>
</clipPath>
<clipPath id="clip5">
  <path d="M 38.152344 135 L 444.84375 135 L 444.84375 136 L 38.152344 136 Z M 38.152344 135 "/>
</clipPath>
<clipPath id="clip6">
  <path d="M 135 53.269531 L 136 53.269531 L 136 422.0625 L 135 422.0625 Z M 135 53.269531 "/>
</clipPath>
<clipPath id="clip7">
  <path d="M 258 53.269531 L 260 53.269531 L 260 422.0625 L 258 422.0625 Z M 258 53.269531 "/>
</clipPath>
<clipPath id="clip8">
  <path d="M 382 53.269531 L 383 53.269531 L 383 422.0625 L 382 422.0625 Z M 382 53.269531 "/>
</clipPath>
<clipPath id="clip9">
  <path d="M 38.152344 320 L 444.84375 320 L 444.84375 322 L 38.152344 322 Z M 38.152344 320 "/>
</clipPath>
<clipPath id="clip10">
  <path d="M 38.152344 196 L 444.84375 196 L 444.84375 198 L 38.152344 198 Z M 38.152344 196 "/>
</clipPath>
<clipPath id="clip11">
  <path d="M 38.152344 73 L 444.84375 73 L 444.84375 75 L 38.152344 75 Z M 38.152344 73 "/>
</clipPath>
<clipPath id="clip12">
  <path d="M 73 53.269531 L 75 53.269531 L 75 422.0625 L 73 422.0625 Z M 73 53.269531 "/>
</clipPath>
<clipPath id="clip13">
  <path d="M 196 53.269531 L 198 53.269531 L 198 422.0625 L 196 422.0625 Z M 196 53.269531 "/>
</clipPath>
<clipPath id="clip14">
  <path d="M 320 53.269531 L 322 53.269531 L 322 422.0625 L 320 422.0625 Z M 320 53.269531 "/>
</clipPath>
<clipPath id="clip15">
  <path d="M 443 53.269531 L 444.84375 53.269531 L 444.84375 422.0625 L 443 422.0625 Z M 443 53.269531 "/>
</clipPath>
</defs>
<g id="surface164">
<rect x="0" y="0" width="504" height="504" style="fill:rgb(100%,100%,100%);fill-opacity:1;stroke:none;"/>
<g clip-path="url(#clip1)" clip-rule="nonzero">
<path style="fill-rule:nonzero;fill:rgb(100%,100%,100%);fill-opacity:1;stroke-width:1.066978;stroke-linecap:round;stroke-linejoin:round;stroke:rgb(100%,100%,100%);stroke-opacity:1;stroke-miterlimit:10;" d="M 0 456.210938 L 504 456.210938 L 504 47.789062 L 0 47.789062 Z M 0 456.210938 "/>
</g>
<g clip-path="url(#clip2)" clip-rule="nonzero">
<path style=" stroke:none;fill-rule:nonzero;fill:rgb(92.156863%,92.156863%,92.156863%);fill-opacity:1;" d="M 38.152344 422.0625 L 444.84375 422.0625 L 444.84375 53.269531 L 38.152344 53.269531 Z M 38.152344 422.0625 "/>
</g>
<g clip-path="url(#clip3)" clip-rule="nonzero">
<path style="fill:none;stroke-width:0.533489;stroke-linecap:butt;stroke-linejoin:round;stroke:rgb(100%,100%,100%);stroke-opacity:1;stroke-miterlimit:10;" d="M 38.152344 382.304688 L 444.84375 382.304688 "/>
</g>
<g clip-path="url(#clip4)" clip-rule="nonzero">
<path style="fill:none;stroke-width:0.533489;stroke-linecap:butt;stroke-linejoin:round;stroke:rgb(100%,100%,100%);stroke-opacity:1;stroke-miterlimit:10;" d="M 38.152344 258.929688 L 444.84375 258.929688 "/>
</g>
<g clip-path="url(#clip5)" clip-rule="nonzero">
<path style="fill:none;stroke-width:0.533489;stroke-linecap:butt;stroke-linejoin:round;stroke:rgb(100%,100%,100%);stroke-opacity:1;stroke-miterlimit:10;" d="M 38.152344 135.550781 L 444.84375 135.550781 "/>
</g>
<g clip-path="url(#clip6)" clip-rule="nonzero">
<path style="fill:none;stroke-width:0.533489;stroke-linecap:butt;stroke-linejoin:round;stroke:rgb(100%,100%,100%);stroke-opacity:1;stroke-miterlimit:10;" d="M 135.71875 422.0625 L 135.71875 53.269531 "/>
</g>
<g clip-path="url(#clip7)" clip-rule="nonzero">
<path style="fill:none;stroke-width:0.533489;stroke-linecap:butt;stroke-linejoin:round;stroke:rgb(100%,100%,100%);stroke-opacity:1;stroke-miterlimit:10;" d="M 259.09375 422.0625 L 259.09375 53.269531 "/>
</g>
<g clip-path="url(#clip8)" clip-rule="nonzero">
<path style="fill:none;stroke-width:0.533489;stroke-linecap:butt;stroke-linejoin:round;stroke:rgb(100%,100%,100%);stroke-opacity:1;stroke-miterlimit:10;" d="M 382.472656 422.0625 L 382.472656 53.269531 "/>
</g>
<g clip-path="url(#clip9)" clip-rule="nonzero">
<path style="fill:none;stroke-width:1.066978;stroke-linecap:butt;stroke-linejoin:round;stroke:rgb(100%,100%,100%);stroke-opacity:1;stroke-miterlimit:10;" d="M 38.152344 320.617188 L 444.84375 320.617188 "/>
</g>
<g clip-path="url(#clip10)" clip-rule="nonzero">
<path style="fill:none;stroke-width:1.066978;stroke-linecap:butt;stroke-linejoin:round;stroke:rgb(100%,100%,100%);stroke-opacity:1;stroke-miterlimit:10;" d="M 38.152344 197.238281 L 444.84375 197.238281 "/>
</g>
<g clip-path="url(#clip11)" clip-rule="nonzero">
<path style="fill:none;stroke-width:1.066978;stroke-linecap:butt;stroke-linejoin:round;stroke:rgb(100%,100%,100%);stroke-opacity:1;stroke-miterlimit:10;" d="M 38.152344 73.863281 L 444.84375 73.863281 "/>
</g>
<g clip-path="url(#clip12)" clip-rule="nonzero">
<path style="fill:none;stroke-width:1.066978;stroke-linecap:butt;stroke-linejoin:round;stroke:rgb(100%,100%,100%);stroke-opacity:1;stroke-miterlimit:10;" d="M 74.03125 422.0625 L 74.03125 53.269531 "/>
</g>
<g clip-path="url(#clip13)" clip-rule="nonzero">
<path style="fill:none;stroke-width:1.066978;stroke-linecap:butt;stroke-linejoin:round;stroke:rgb(100%,100%,100%);stroke-opacity:1;stroke-miterlimit:10;" d="M 197.40625 422.0625 L 197.40625 53.269531 "/>
</g>
<g clip-path="url(#clip14)" clip-rule="nonzero">
<path style="fill:none;stroke-width:1.066978;stroke-linecap:butt;stroke-linejoin:round;stroke:rgb(100%,100%,100%);stroke-opacity:1;stroke-miterlimit:10;" d="M 320.785156 422.0625 L 320.785156 53.269531 "/>
</g>
<g clip-path="url(#clip15)" clip-rule="nonzero">
<path style="fill:none;stroke-width:1.066978;stroke-linecap:butt;stroke-linejoin:round;stroke:rgb(100%,100%,100%);stroke-opacity:1;stroke-miterlimit:10;" d="M 444.160156 422.0625 L 444.160156 53.269531 "/>
</g>
<path style="fill-rule:nonzero;fill:rgb(0%,74.901961%,76.862745%);fill-opacity:1;stroke-width:0.708661;stroke-linecap:round;stroke-linejoin:round;stroke:rgb(0%,74.901961%,76.862745%);stroke-opacity:1;stroke-miterlimit:10;" d="M 124.839844 70.03125 C 124.839844 74.769531 117.730469 74.769531 117.730469 70.03125 C 117.730469 65.289062 124.839844 65.289062 124.839844 70.03125 "/>
<path style="fill-rule:nonzero;fill:rgb(0%,74.901961%,76.862745%);fill-opacity:1;stroke-width:0.708661;stroke-linecap:round;stroke-linejoin:round;stroke:rgb(0%,74.901961%,76.862745%);stroke-opacity:1;stroke-miterlimit:10;" d="M 60.191406 127.496094 C 60.191406 132.234375 53.082031 132.234375 53.082031 127.496094 C 53.082031 122.753906 60.191406 122.753906 60.191406 127.496094 "/>
<path style="fill-rule:nonzero;fill:rgb(0%,74.901961%,76.862745%);fill-opacity:1;stroke-width:0.708661;stroke-linecap:round;stroke-linejoin:round;stroke:rgb(0%,74.901961%,76.862745%);stroke-opacity:1;stroke-miterlimit:10;" d="M 63.113281 252.589844 C 63.113281 257.328125 56.003906 257.328125 56.003906 252.589844 C 56.003906 247.847656 63.113281 247.847656 63.113281 252.589844 "/>
<path style="fill-rule:nonzero;fill:rgb(97.254902%,46.27451%,42.745098%);fill-opacity:1;stroke-width:0.708661;stroke-linecap:round;stroke-linejoin:round;stroke:rgb(97.254902%,46.27451%,42.745098%);stroke-opacity:1;stroke-miterlimit:10;" d="M 322.585938 128.554688 C 322.585938 133.292969 315.472656 133.292969 315.472656 128.554688 C 315.472656 123.8125 322.585938 123.8125 322.585938 128.554688 "/>
<path style="fill-rule:nonzero;fill:rgb(97.254902%,46.27451%,42.745098%);fill-opacity:1;stroke-width:0.708661;stroke-linecap:round;stroke-linejoin:round;stroke:rgb(97.254902%,46.27451%,42.745098%);stroke-opacity:1;stroke-miterlimit:10;" d="M 189.71875 405.296875 C 189.71875 410.039062 182.609375 410.039062 182.609375 405.296875 C 182.609375 400.558594 189.71875 400.558594 189.71875 405.296875 "/>
<path style="fill-rule:nonzero;fill:rgb(97.254902%,46.27451%,42.745098%);fill-opacity:1;stroke-width:0.708661;stroke-linecap:round;stroke-linejoin:round;stroke:rgb(97.254902%,46.27451%,42.745098%);stroke-opacity:1;stroke-miterlimit:10;" d="M 216.367188 205.152344 C 216.367188 209.890625 209.257812 209.890625 209.257812 205.152344 C 209.257812 200.410156 216.367188 200.410156 216.367188 205.152344 "/>
<path style="fill-rule:nonzero;fill:rgb(97.254902%,46.27451%,42.745098%);fill-opacity:1;stroke-width:0.708661;stroke-linecap:round;stroke-linejoin:round;stroke:rgb(97.254902%,46.27451%,42.745098%);stroke-opacity:1;stroke-miterlimit:10;" d="M 429.914062 191.558594 C 429.914062 196.300781 422.800781 196.300781 422.800781 191.558594 C 422.800781 186.820312 429.914062 186.820312 429.914062 191.558594 "/>
<g style="fill:rgb(30.196078%,30.196078%,30.196078%);fill-opacity:1;">
  <use xlink:href="#glyph0-1" x="20.21875" y="323.532227"/>
  <use xlink:href="#glyph0-2" x="23.21875" y="323.532227"/>
  <use xlink:href="#glyph0-3" x="28.21875" y="323.532227"/>
</g>
<g style="fill:rgb(30.196078%,30.196078%,30.196078%);fill-opacity:1;">
  <use xlink:href="#glyph0-3" x="28.21875" y="200.15332"/>
</g>
<g style="fill:rgb(30.196078%,30.196078%,30.196078%);fill-opacity:1;">
  <use xlink:href="#glyph0-2" x="23.21875" y="76.77832"/>
  <use xlink:href="#glyph0-3" x="28.21875" y="76.77832"/>
</g>
<path style="fill:none;stroke-width:1.066978;stroke-linecap:butt;stroke-linejoin:round;stroke:rgb(20%,20%,20%);stroke-opacity:1;stroke-miterlimit:10;" d="M 35.410156 320.617188 L 38.152344 320.617188 "/>
<path style="fill:none;stroke-width:1.066978;stroke-linecap:butt;stroke-linejoin:round;stroke:rgb(20%,20%,20%);stroke-opacity:1;stroke-miterlimit:10;" d="M 35.410156 197.238281 L 38.152344 197.238281 "/>
<path style="fill:none;stroke-width:1.066978;stroke-linecap:butt;stroke-linejoin:round;stroke:rgb(20%,20%,20%);stroke-opacity:1;stroke-miterlimit:10;" d="M 35.410156 73.863281 L 38.152344 73.863281 "/>
<path style="fill:none;stroke-width:1.066978;stroke-linecap:butt;stroke-linejoin:round;stroke:rgb(20%,20%,20%);stroke-opacity:1;stroke-miterlimit:10;" d="M 74.03125 424.800781 L 74.03125 422.0625 "/>
<path style="fill:none;stroke-width:1.066978;stroke-linecap:butt;stroke-linejoin:round;stroke:rgb(20%,20%,20%);stroke-opacity:1;stroke-miterlimit:10;" d="M 197.40625 424.800781 L 197.40625 422.0625 "/>
<path style="fill:none;stroke-width:1.066978;stroke-linecap:butt;stroke-linejoin:round;stroke:rgb(20%,20%,20%);stroke-opacity:1;stroke-miterlimit:10;" d="M 320.785156 424.800781 L 320.785156 422.0625 "/>
<path style="fill:none;stroke-width:1.066978;stroke-linecap:butt;stroke-linejoin:round;stroke:rgb(20%,20%,20%);stroke-opacity:1;stroke-miterlimit:10;" d="M 444.160156 424.800781 L 444.160156 422.0625 "/>
<g style="fill:rgb(30.196078%,30.196078%,30.196078%);fill-opacity:1;">
  <use xlink:href="#glyph0-1" x="67.53125" y="433.407227"/>
  <use xlink:href="#glyph0-2" x="70.53125" y="433.407227"/>
  <use xlink:href="#glyph0-3" x="75.53125" y="433.407227"/>
</g>
<g style="fill:rgb(30.196078%,30.196078%,30.196078%);fill-opacity:1;">
  <use xlink:href="#glyph0-3" x="194.90625" y="433.407227"/>
</g>
<g style="fill:rgb(30.196078%,30.196078%,30.196078%);fill-opacity:1;">
  <use xlink:href="#glyph0-2" x="315.785156" y="433.407227"/>
  <use xlink:href="#glyph0-3" x="320.785156" y="433.407227"/>
</g>
<g style="fill:rgb(30.196078%,30.196078%,30.196078%);fill-opacity:1;">
  <use xlink:href="#glyph0-4" x="439.160156" y="433.407227"/>
  <use xlink:href="#glyph0-3" x="444.160156" y="433.407227"/>
</g>
<g style="fill:rgb(0%,0%,0%);fill-opacity:1;">
  <use xlink:href="#glyph1-1" x="194.996094" y="446.749023"/>
  <use xlink:href="#glyph1-2" x="201.996094" y="446.749023"/>
  <use xlink:href="#glyph1-3" x="209.996094" y="446.749023"/>
  <use xlink:href="#glyph1-4" x="215.996094" y="446.749023"/>
  <use xlink:href="#glyph1-5" x="218.996094" y="446.749023"/>
  <use xlink:href="#glyph1-6" x="221.996094" y="446.749023"/>
  <use xlink:href="#glyph1-7" x="227.996094" y="446.749023"/>
  <use xlink:href="#glyph1-8" x="233.996094" y="446.749023"/>
  <use xlink:href="#glyph1-5" x="243.996094" y="446.749023"/>
  <use xlink:href="#glyph1-9" x="246.996094" y="446.749023"/>
  <use xlink:href="#glyph1-10" x="251.996094" y="446.749023"/>
  <use xlink:href="#glyph1-11" x="257.996094" y="446.749023"/>
  <use xlink:href="#glyph1-12" x="261.996094" y="446.749023"/>
  <use xlink:href="#glyph1-10" x="263.996094" y="446.749023"/>
  <use xlink:href="#glyph1-13" x="269.996094" y="446.749023"/>
  <use xlink:href="#glyph1-14" x="275.996094" y="446.749023"/>
  <use xlink:href="#glyph1-15" x="281.996094" y="446.749023"/>
</g>
<g style="fill:rgb(0%,0%,0%);fill-opacity:1;">
  <use xlink:href="#glyph2-1" x="13.499023" y="284.164062"/>
  <use xlink:href="#glyph2-2" x="13.499023" y="277.164062"/>
  <use xlink:href="#glyph2-3" x="13.499023" y="269.164062"/>
  <use xlink:href="#glyph2-4" x="13.499023" y="263.164062"/>
  <use xlink:href="#glyph2-5" x="13.499023" y="260.164062"/>
  <use xlink:href="#glyph2-3" x="13.499023" y="257.164062"/>
  <use xlink:href="#glyph2-6" x="13.499023" y="251.164062"/>
  <use xlink:href="#glyph2-7" x="13.499023" y="245.164062"/>
  <use xlink:href="#glyph2-5" x="13.499023" y="235.164062"/>
  <use xlink:href="#glyph2-8" x="13.499023" y="232.164062"/>
  <use xlink:href="#glyph2-9" x="13.499023" y="227.164062"/>
  <use xlink:href="#glyph2-10" x="13.499023" y="221.164062"/>
  <use xlink:href="#glyph2-11" x="13.499023" y="217.164062"/>
  <use xlink:href="#glyph2-9" x="13.499023" y="215.164062"/>
  <use xlink:href="#glyph2-12" x="13.499023" y="209.164062"/>
  <use xlink:href="#glyph2-13" x="13.499023" y="203.164062"/>
  <use xlink:href="#glyph2-14" x="13.499023" y="197.164062"/>
</g>
<path style=" stroke:none;fill-rule:nonzero;fill:rgb(100%,100%,100%);fill-opacity:1;" d="M 455.800781 269.164062 L 498.519531 269.164062 L 498.519531 206.164062 L 455.800781 206.164062 Z M 455.800781 269.164062 "/>
<g style="fill:rgb(0%,0%,0%);fill-opacity:1;">
  <use xlink:href="#glyph1-16" x="461.28125" y="221.163086"/>
  <use xlink:href="#glyph1-11" x="467.28125" y="221.163086"/>
  <use xlink:href="#glyph1-17" x="471.28125" y="221.163086"/>
  <use xlink:href="#glyph1-18" x="477.28125" y="221.163086"/>
  <use xlink:href="#glyph1-19" x="483.28125" y="221.163086"/>
</g>
<path style=" stroke:none;fill-rule:nonzero;fill:rgb(94.901961%,94.901961%,94.901961%);fill-opacity:1;" d="M 461.28125 246.402344 L 478.5625 246.402344 L 478.5625 229.121094 L 461.28125 229.121094 Z M 461.28125 246.402344 "/>
<path style="fill-rule:nonzero;fill:rgb(97.254902%,46.27451%,42.745098%);fill-opacity:1;stroke-width:0.708661;stroke-linecap:round;stroke-linejoin:round;stroke:rgb(97.254902%,46.27451%,42.745098%);stroke-opacity:1;stroke-miterlimit:10;" d="M 473.476562 237.765625 C 473.476562 242.503906 466.367188 242.503906 466.367188 237.765625 C 466.367188 233.023438 473.476562 233.023438 473.476562 237.765625 "/>
<path style=" stroke:none;fill-rule:nonzero;fill:rgb(94.901961%,94.901961%,94.901961%);fill-opacity:1;" d="M 461.28125 263.683594 L 478.5625 263.683594 L 478.5625 246.402344 L 461.28125 246.402344 Z M 461.28125 263.683594 "/>
<path style="fill-rule:nonzero;fill:rgb(0%,74.901961%,76.862745%);fill-opacity:1;stroke-width:0.708661;stroke-linecap:round;stroke-linejoin:round;stroke:rgb(0%,74.901961%,76.862745%);stroke-opacity:1;stroke-miterlimit:10;" d="M 473.476562 255.042969 C 473.476562 259.785156 466.367188 259.785156 466.367188 255.042969 C 466.367188 250.304688 473.476562 250.304688 473.476562 255.042969 "/>
<g style="fill:rgb(0%,0%,0%);fill-opacity:1;">
  <use xlink:href="#glyph0-5" x="484.042969" y="240.680664"/>
  <use xlink:href="#glyph0-6" x="491.042969" y="240.680664"/>
</g>
<g style="fill:rgb(0%,0%,0%);fill-opacity:1;">
  <use xlink:href="#glyph0-7" x="484.042969" y="257.958008"/>
  <use xlink:href="#glyph0-8" x="488.042969" y="257.958008"/>
</g>
</g>
</svg>
